{
  "apiVersion": "vlabs",
  "properties": {
    "orchestratorProfile": {
      "orchestratorType": "Kubernetes",
      "orchestratorRelease": "1.10",
      "orchestratorVersion": "1.10.4",
      "kubernetesConfig": {
        "kubernetesImageBase": "k8s-gcrio.azureedge.net/",
        "clusterSubnet": "10.240.0.0/12",
        "dnsServiceIP": "10.0.0.10",
        "serviceCidr": "10.0.0.0/16",
        "networkPlugin": "azure",
        "dockerBridgeSubnet": "172.17.0.1/16",
        "useInstanceMetadata": true,
        "enableRbac": true,
        "enableSecureKubelet": true,
        "privateCluster": {
          "enabled": false
        },
        "gchighthreshold": 85,
        "gclowthreshold": 80,
        "etcdVersion": "3.2.16",
        "etcdDiskSizeGB": "512",
        "addons": [
          {
            "name": "tiller",
            "enabled": true,
            "containers": [
              {
                "name": "tiller",
                "cpuRequests": "50m",
                "memoryRequests": "150Mi",
                "cpuLimits": "50m",
                "memoryLimits": "150Mi"
              }
            ],
            "config": {
              "max-history": "0"
            }
          },
          {
            "name": "aci-connector",
            "enabled": false,
            "containers": [
              {
                "name": "aci-connector",
                "cpuRequests": "50m",
                "memoryRequests": "150Mi",
                "cpuLimits": "50m",
                "memoryLimits": "150Mi"
              }
            ],
            "config": {
              "nodeName": "aci-connector",
              "os": "Linux",
              "region": "westus",
              "taint": "azure.com/aci"
            }
          },
          {
            "name": "cluster-autoscaler",
            "enabled": false,
            "containers": [
              {
                "name": "cluster-autoscaler",
                "cpuRequests": "100m",
                "memoryRequests": "300Mi",
                "cpuLimits": "100m",
                "memoryLimits": "300Mi"
              }
            ],
            "config": {
              "maxNodes": "5",
              "minNodes": "1"
            }
          },
          {
            "name": "kubernetes-dashboard",
            "enabled": true,
            "containers": [
              {
                "name": "kubernetes-dashboard",
                "cpuRequests": "300m",
                "memoryRequests": "150Mi",
                "cpuLimits": "300m",
                "memoryLimits": "150Mi"
              }
            ]
          },
          {
            "name": "rescheduler",
            "enabled": false,
            "containers": [
              {
                "name": "rescheduler",
                "cpuRequests": "10m",
                "memoryRequests": "100Mi",
                "cpuLimits": "10m",
                "memoryLimits": "100Mi"
              }
            ]
          },
          {
            "name": "metrics-server",
            "enabled": true,
            "containers": [
              {
                "name": "metrics-server"
              }
            ]
          },
          {
            "name": "nvidia-device-plugin",
            "containers": [
              {
                "name": "nvidia-device-plugin"
              }
            ]
          }
        ],
        "kubeletConfig": {
          "--address": "0.0.0.0",
          "--allow-privileged": "true",
          "--anonymous-auth": "false",
          "--authorization-mode": "Webhook",
          "--azure-container-registry-config": "/etc/kubernetes/azure.json",
          "--cadvisor-port": "0",
          "--cgroups-per-qos": "true",
          "--client-ca-file": "/etc/kubernetes/certs/ca.crt",
          "--cloud-config": "/etc/kubernetes/azure.json",
          "--cloud-provider": "azure",
          "--cluster-dns": "10.0.0.10",
          "--cluster-domain": "cluster.local",
          "--enforce-node-allocatable": "pods",
          "--event-qps": "0",
          "--eviction-hard": "memory.available<100Mi,nodefs.available<10%,nodefs.inodesFree<5%",
          "--feature-gates": "",
          "--image-gc-high-threshold": "85",
          "--image-gc-low-threshold": "80",
          "--image-pull-progress-deadline": "30m",
          "--keep-terminated-pod-volumes": "false",
          "--kubeconfig": "/var/lib/kubelet/kubeconfig",
          "--max-pods": "30",
          "--network-plugin": "cni",
          "--node-status-update-frequency": "10s",
          "--non-masquerade-cidr": "10.240.0.0/12",
          "--pod-infra-container-image": "k8s-gcrio.azureedge.net/pause-amd64:3.1",
          "--pod-manifest-path": "/etc/kubernetes/manifests",
          "--pod-max-pids": "100"
        },
        "controllerManagerConfig": {
          "--allocate-node-cidrs": "false",
          "--cloud-config": "/etc/kubernetes/azure.json",
          "--cloud-provider": "azure",
          "--cluster-cidr": "10.240.0.0/12",
          "--cluster-name": "jhtestkube",
          "--cluster-signing-cert-file": "/etc/kubernetes/certs/ca.crt",
          "--cluster-signing-key-file": "/etc/kubernetes/certs/ca.key",
          "--configure-cloud-routes": "false",
          "--feature-gates": "ServiceNodeExclusion=true",
          "--kubeconfig": "/var/lib/kubelet/kubeconfig",
          "--leader-elect": "true",
          "--node-monitor-grace-period": "40s",
          "--pod-eviction-timeout": "5m0s",
          "--profiling": "false",
          "--root-ca-file": "/etc/kubernetes/certs/ca.crt",
          "--route-reconciliation-period": "10s",
          "--service-account-private-key-file": "/etc/kubernetes/certs/apiserver.key",
          "--terminated-pod-gc-threshold": "5000",
          "--use-service-account-credentials": "true",
          "--v": "2"
        },
        "cloudControllerManagerConfig": {
          "--allocate-node-cidrs": "false",
          "--cloud-config": "/etc/kubernetes/azure.json",
          "--cloud-provider": "azure",
          "--cluster-cidr": "10.240.0.0/12",
          "--cluster-name": "jhtestkube",
          "--configure-cloud-routes": "false",
          "--kubeconfig": "/var/lib/kubelet/kubeconfig",
          "--leader-elect": "true",
          "--route-reconciliation-period": "10s",
          "--v": "2"
        },
        "apiServerConfig": {
          "--advertise-address": "<kubernetesAPIServerIP>",
          "--allow-privileged": "true",
          "--anonymous-auth": "false",
          "--audit-log-maxage": "30",
          "--audit-log-maxbackup": "10",
          "--audit-log-maxsize": "100",
          "--audit-log-path": "/var/log/audit.log",
          "--audit-policy-file": "/etc/kubernetes/manifests/audit-policy.yaml",
          "--authorization-mode": "Node,RBAC",
          "--bind-address": "0.0.0.0",
          "--client-ca-file": "/etc/kubernetes/certs/ca.crt",
          "--cloud-config": "/etc/kubernetes/azure.json",
          "--cloud-provider": "azure",
          "--enable-admission-plugins": "NamespaceLifecycle,LimitRanger,ServiceAccount,DefaultStorageClass,DefaultTolerationSeconds,MutatingAdmissionWebhook,ValidatingAdmissionWebhook,ResourceQuota,DenyEscalatingExec,AlwaysPullImages",
          "--etcd-cafile": "/etc/kubernetes/certs/ca.crt",
          "--etcd-certfile": "/etc/kubernetes/certs/etcdclient.crt",
          "--etcd-keyfile": "/etc/kubernetes/certs/etcdclient.key",
          "--etcd-servers": "https://127.0.0.1:2379",
          "--insecure-port": "8080",
          "--kubelet-client-certificate": "/etc/kubernetes/certs/client.crt",
          "--kubelet-client-key": "/etc/kubernetes/certs/client.key",
          "--profiling": "false",
          "--proxy-client-cert-file": "/etc/kubernetes/certs/proxy.crt",
          "--proxy-client-key-file": "/etc/kubernetes/certs/proxy.key",
          "--repair-malformed-updates": "false",
          "--requestheader-allowed-names": "",
          "--requestheader-client-ca-file": "/etc/kubernetes/certs/proxy-ca.crt",
          "--requestheader-extra-headers-prefix": "X-Remote-Extra-",
          "--requestheader-group-headers": "X-Remote-Group",
          "--requestheader-username-headers": "X-Remote-User",
          "--secure-port": "443",
          "--service-account-key-file": "/etc/kubernetes/certs/apiserver.key",
          "--service-account-lookup": "true",
          "--service-cluster-ip-range": "10.0.0.0/16",
          "--storage-backend": "etcd3",
          "--tls-cert-file": "/etc/kubernetes/certs/apiserver.crt",
          "--tls-private-key-file": "/etc/kubernetes/certs/apiserver.key",
          "--v": "4"
        },
        "schedulerConfig": {
          "--kubeconfig": "/var/lib/kubelet/kubeconfig",
          "--leader-elect": "true",
          "--profiling": "false",
          "--v": "2"
        }
      }
    },
    "masterProfile": {
      "count": 1,
      "dnsPrefix": "jhtestkube",
      "subjectAltNames": null,
      "vmSize": "Standard_D2_v2",
      "firstConsecutiveStaticIP": "10.255.255.5",
      "storageProfile": "ManagedDisks",
      "oauthEnabled": false,
      "preProvisionExtension": null,
      "extensions": [],
      "distro": "ubuntu",
      "kubernetesConfig": {
        "kubeletConfig": {
          "--address": "0.0.0.0",
          "--allow-privileged": "true",
          "--anonymous-auth": "false",
          "--authorization-mode": "Webhook",
          "--azure-container-registry-config": "/etc/kubernetes/azure.json",
          "--cadvisor-port": "0",
          "--cgroups-per-qos": "true",
          "--client-ca-file": "/etc/kubernetes/certs/ca.crt",
          "--cloud-config": "/etc/kubernetes/azure.json",
          "--cloud-provider": "azure",
          "--cluster-dns": "10.0.0.10",
          "--cluster-domain": "cluster.local",
          "--enforce-node-allocatable": "pods",
          "--event-qps": "0",
          "--eviction-hard": "memory.available<100Mi,nodefs.available<10%,nodefs.inodesFree<5%",
          "--feature-gates": "",
          "--image-gc-high-threshold": "85",
          "--image-gc-low-threshold": "80",
          "--image-pull-progress-deadline": "30m",
          "--keep-terminated-pod-volumes": "false",
          "--kubeconfig": "/var/lib/kubelet/kubeconfig",
          "--max-pods": "30",
          "--network-plugin": "cni",
          "--node-status-update-frequency": "10s",
          "--non-masquerade-cidr": "10.240.0.0/12",
          "--pod-infra-container-image": "k8s-gcrio.azureedge.net/pause-amd64:3.1",
          "--pod-manifest-path": "/etc/kubernetes/manifests",
          "--pod-max-pids": "100"
        }
      }
    },
    "agentPoolProfiles": [
      {
        "name": "agentpool1",
        "count": 3,
        "vmSize": "Standard_D2_v2",
        "osType": "Linux",
        "availabilityProfile": "AvailabilitySet",
        "storageProfile": "ManagedDisks",
        "distro": "ubuntu",
        "kubernetesConfig": {
          "kubeletConfig": {
            "--address": "0.0.0.0",
            "--allow-privileged": "true",
            "--anonymous-auth": "false",
            "--authorization-mode": "Webhook",
            "--azure-container-registry-config": "/etc/kubernetes/azure.json",
            "--cadvisor-port": "0",
            "--cgroups-per-qos": "true",
            "--client-ca-file": "/etc/kubernetes/certs/ca.crt",
            "--cloud-config": "/etc/kubernetes/azure.json",
            "--cloud-provider": "azure",
            "--cluster-dns": "10.0.0.10",
            "--cluster-domain": "cluster.local",
            "--enforce-node-allocatable": "pods",
            "--event-qps": "0",
            "--eviction-hard": "memory.available<100Mi,nodefs.available<10%,nodefs.inodesFree<5%",
            "--feature-gates": "",
            "--image-gc-high-threshold": "85",
            "--image-gc-low-threshold": "80",
            "--image-pull-progress-deadline": "30m",
            "--keep-terminated-pod-volumes": "false",
            "--kubeconfig": "/var/lib/kubelet/kubeconfig",
            "--max-pods": "30",
            "--network-plugin": "cni",
            "--node-status-update-frequency": "10s",
            "--non-masquerade-cidr": "10.240.0.0/12",
            "--pod-infra-container-image": "k8s-gcrio.azureedge.net/pause-amd64:3.1",
            "--pod-manifest-path": "/etc/kubernetes/manifests",
            "--pod-max-pids": "100"
          }
        },
        "fqdn": "",
        "preProvisionExtension": null,
        "extensions": []
      }
    ],
    "linuxProfile": {
      "adminUsername": "azureuser",
      "ssh": {
        "publicKeys": [
          {
            "keyData": "ssh-rsa AAAAB3NzaC1yc2EAAAADAQABAAACAQC8sIMt+jpWGIB9q/SfnojOxBc3dDkrhlrCWVTxXnk3NBjewA4qWuAfa+V3iY1rmhCPhqv6JQCN44UuKIJs/dPzWI5KezTP2vzf8Y/uNeFgYfpy1Ob64vFjh0Bl6T5fANwgHkxeALVCWVNz1ePIvdt79ZifBwBU6qhcd2s8msa1tn1l3vdtbgx4AESsI/mSbbygWjhuWlO5joUkgdSnHNYp+n3BfHFZpw/6+/kWZJ5xI1KeP3U5d6DZLU0PY1vxKkoUYOI9Znk9FwivRDWZUh0Ur5mUKOW6TPrqSf1zYSA3dd5OzgZI4kDLIszNophxubBtclwWDVyxbtCy1iUgCpO/clUfAykMiJcBKrf3GAIWblZQSkdqCsBIohLlL9vEqgrw4rAHsUgm3RhW+0dJRBKdZXhyW6o3vaYjBH8Et9zM+WrXLQA1s/a4NoqKbgMNa4QTFPeZLHhJyUcUaC1vy+9CPFW/SnyH3pMdtSl5MgizLlBm9Kkx9Wehgg8pvCpYlcmutVSdmmxVqKvqdHbKubMog8KeCenz8ZANb/KbqvERx3i54+RiXZxnkD+ilc5fnozrcgABynBAbDOdVJfd3eR3QGubWbTLpIfvfmfklwotLjJSoezGiZFUZPXvpfPOd5wjDgvy1W4qa3vCaDgDRL6ZM/s1/ogUUEWd/PYrrWXscQ=="
          }
        ]
      }
    },
    "servicePrincipalProfile": {
      "clientId": "1234",
      "secret": "22425"
    },
    "certificateProfile": {
      "caCertificate": "-----BEGIN CERTIFICATE-----\nMIIExzCCAq+gAwIBAgIQQyuBDv8eclUA+vNy1Ege6DANBgkqhkiG9w0BAQsFADAN\nMQswCQYDVQQDEwJjYTAeFw0xODA2MTUxMjA3MDJaFw0yMDA2MTQxMjA3MDJaMA0x\nCzAJBgNVBAMTAmNhMIICIjANBgkqhkiG9w0BAQEFAAOCAg8AMIICCgKCAgEAtt3H\nTknwzWAQoV22BRDmBx344P7VSNH7G2E2vsc50pRU0Ag8L/N2v3FS2ExVz2ixuDqD\nbUiNzmnFGHfcPfCdJP98HxLq6I6Sj6LC2lp4qMCFUL8qx2g3yhEyhR7GnqvIOjwz\ngm+FY+QCzHuPGI9/8K+Y2Qgncaj7CqJhccU9C7sTKLlrDWaoHq437btx3W6URsF0\nP97u+c5+jYKYyz4NcCUqhMmpSYOaztaRymXZqQ2AU0eOitxOkePCzvv1tgCp+yTq\ndnDJTBvBT2NuKG2h+bQNfsKw5T/8TPiouiAvdjDU9nWsLqRNbhyt2Au3Mre4ibEM\nqkKD62IsAMbkilsUSvbZlBScwNWBANZAV7Ncq+h5OOKCFyctS9lAw/kmAdOQkQDh\nG2bhRVOuasAoDu6MIsln0yHjIETfe8w/E2OH69Lm8FSPcS7RJZ1+5bqzSszofBRc\nTnYHxzd2jCc0NEzXusrDDavi9DQKYm4sMW3dsf05XEknQ0wKgI38KBem8kO4BqL2\nhbVpvrPBaU/1F5Ff9CM5iDbSq6Ghy2egnSr5yShwmZNnmxfXjUMI2/A/LlHgDAop\nAvXTuNdJjsz64IhMkmtcXCcj3RCPXJazO8phqPqJa1tz/MUO+iVGNXYYknMgQbPy\nL/ZSCujspAejiMa0K3z+Dl6X6omfCP2pHjZtmBkCAwEAAaMjMCEwDgYDVR0PAQH/\nBAQDAgKkMA8GA1UdEwEB/wQFMAMBAf8wDQYJKoZIhvcNAQELBQADggIBAJ/mEdWf\nkFHteWsnTQkl8INrRNSMbAwi/NOEu0y+dOTWTXhGBo2l5yWmoLBfZOoZZs7LccvT\ndJ6Wa4UXo67OwCWLR9oI5hww9E7BueuO9b4M5Jm+Y3WUhmxLekc6/K++CoEGb1tv\nQM4Par8NZtS52qMEERb/IWzIoeFrKi0Rg4B7nLnha147EpMD7+757kSIMERRMOX7\n9kp7pcxOcCymlJTIZ2lVq63wGFSdrMszLuKR0HQR9AUuTHYRvhVLqyr5ONxtW1tt\nLkeRNce2385wSAO5LAqx2mpVTeFV8VDEMKjFATJlOfxF7X5oxsllQzkb+6MaqM5f\nzOWNYlT/p/oD0TCFHEoBGjqx2c/cU5G+zBjk3S814+7KjjIs48JiZ4+yWprrBpY9\ndO185F7Awr06VdhfFXAXBEf2qlFwv0Nvh2cjjTIydKFqD2hUAYU1jeCVJ5MGXSkd\nbjwS/9IrKmDPk+6HDdi1q7o0tG948Wjfc63ps9mf+qKf1Ki/is0kooUgsDWRnDm6\nsMOrZigmio9o+Gse7U0Eze/xbCOCQT1txpuiXVu4O1R+9ilzkHydfL+K3DOWJWJ9\nHyI+Y0n1KlCXgM9AuDkLOXXrZPgiBbs6+atUCqb0A6tf92ztScB0xISRGMuM4mgu\nvayJD4i0W6pftk34eTqW3QiOse2Xv/wUbotO\n-----END CERTIFICATE-----\n",
      "caPrivateKey": "-----BEGIN RSA PRIVATE KEY-----\nMIIJKgIBAAKCAgEAtt3HTknwzWAQoV22BRDmBx344P7VSNH7G2E2vsc50pRU0Ag8\nL/N2v3FS2ExVz2ixuDqDbUiNzmnFGHfcPfCdJP98HxLq6I6Sj6LC2lp4qMCFUL8q\nx2g3yhEyhR7GnqvIOjwzgm+FY+QCzHuPGI9/8K+Y2Qgncaj7CqJhccU9C7sTKLlr\nDWaoHq437btx3W6URsF0P97u+c5+jYKYyz4NcCUqhMmpSYOaztaRymXZqQ2AU0eO\nitxOkePCzvv1tgCp+yTqdnDJTBvBT2NuKG2h+bQNfsKw5T/8TPiouiAvdjDU9nWs\nLqRNbhyt2Au3Mre4ibEMqkKD62IsAMbkilsUSvbZlBScwNWBANZAV7Ncq+h5OOKC\nFyctS9lAw/kmAdOQkQDhG2bhRVOuasAoDu6MIsln0yHjIETfe8w/E2OH69Lm8FSP\ncS7RJZ1+5bqzSszofBRcTnYHxzd2jCc0NEzXusrDDavi9DQKYm4sMW3dsf05XEkn\nQ0wKgI38KBem8kO4BqL2hbVpvrPBaU/1F5Ff9CM5iDbSq6Ghy2egnSr5yShwmZNn\nmxfXjUMI2/A/LlHgDAopAvXTuNdJjsz64IhMkmtcXCcj3RCPXJazO8phqPqJa1tz\n/MUO+iVGNXYYknMgQbPyL/ZSCujspAejiMa0K3z+Dl6X6omfCP2pHjZtmBkCAwEA\nAQKCAgEAiww+ZahRo0i9vIXORzHfR2AiA6uiMFoCj4IvJ4fDzvydNQZeBbQiAlZA\nQVpiEXExWb2ce/ekZGUGyqExZiPUyfI+xj4TQzxN80w2z+PlRaQGeyyxcaksaskC\n2jhZnQNQH//wxujXy+nvut7lIy7SgQh0t+q8W2+7XA22/NSWo5nfaqL65Ni/U3zz\n6CAU5+QSeW7WX0679lVu41l/p2OKwlBwcUIKKG0axNZhSz6A8Evk3O5XU/1K/SHr\n2om5/2en2ODsK519YxLjveMEO1eJx56CeHXAHsG1ri2R1t1sWXmuJa26fEjQ276Q\n7euSpM0QVBq9X6VuPAiNHxYdZ5rz5Pai97EpuVGUoSk62ihYVkmInTV0fHSlVfay\nJzW+J781vxmMHG7gnOWwMb/QitNxNsGpzvMuwOG1LJsgOehOe6izcUNb+WYCFDT8\nG3Fa8DxbDfhwgxwEoQ44ZuHeTJWgx3d93hCKToDUQa5UFhWOAa6AQD96R9UezvHB\n4MZUIH6wT/A0Zmgq5Gl1djhkRoOsGln66Lshc6MMUfAcI4/vFquHU146+P8PPn7+\nPZRnlu0QM/6Fjvht5qsNWYLfa89ljyMFwROvLZ55qgVUJOTlyXZiufuBwuJt8QZB\nzYuqPGOUYmfU0ADRQpuVQ2ga7nET+W72Eg4oWe7J3r6a77PbJ1ECggEBAOm2aLcS\n426FKnPlv0/R3xE68OTK5z1F2vZ5bYKzb6FzT29qYDpOw2JMOI9uA8PgaTq6PWSL\n+99RFyy6ohm85fVOxT6YlElIeC1+7ibFcoDCJhtaHSAY5FH+DXheOMWwFsODpy9n\nJQiXsSDA+Jq1NrYpt16jS9k9IhcLMD6goH8YyrJoQ+ZpUMdpAlXcqyOju3II/jqz\nU1N2OE2XaKRevEAyyQfHZX2jj/ng3NdSANwskPw/GHQqyYuLnhcfK4cBIr6WZq1X\n+LuAm/uwG0USlEUwVi2hIqsBEDYobllOcoTbvtU8FtiwY8ut5ZZFq9CzJZF6XMg8\n5RdgZDk2DHgYkg0CggEBAMhOEW/+hFfLHjJ+/XN9kujj0oOh8LnY1ojeFeeQ3hXK\nZGWKPf895QWP1mOnr21pnR0P0ION1P/i7bOVfhpMS2a3BGIq7eFRqEzNt+aAdiU5\nWMZpA+eyO0Q7xeslKhN8FwmhLEpadBZTRBasX9qKLcabWGo3pwtzF+hxS/kI6iHJ\nDXIbojb4mO4BWYC/f/SL6AcvLdwoeZDdvIkq7qucQ8toGA6TSxyJZEzLcUcVPZZL\nsxOTwhuhp6c+s0OBZG3+uwdkr7C7XogYBbss1E+PenwhHItjVSAd+bGeyxtU65GR\nmshGtxCQ+bMzC/H747tPUOBnwfvk/+7x8W/gytN6Nz0CggEBAJemKeppEjRbqkFL\n2ciUWNcYVMlQs505n6wA/MMrZYrwhKG597i99N/qr2S6MS0/h2h5Am8kugmc15nJ\nfHeQ7/It66UDYmzu3jQ/QY7c3cCYuhtTbMSwAi8F1328PcBg01SIL8p9djVOILwt\nGuNgJKEtDnQVJ5lNpronI2Xv2lS+JICBUVXIDodmJwLJzi6xBmcnWLeENtRYSI5o\naZkGc8aAbZtjkgJlSH4On54D8tTrAiT7WAXA4chvjuRX8GmInh/m/bcK9zXLbOty\nyS8XsCf5BmJTRWiKpxdNQtUmJv74i6pXdEekpQy7yNaqXKNuKzlrmZrAkLKLdFz/\nKjYfU10CggEBAKiMoLm31s81eQyOtWE4WqWkB2GCpFkOcMAs+QupaGe3rjGPWUnt\nYEkE1yd2U/TieTWaOCBq+b/0yYZjFgC1EIG3IXYln5QJLXCrbsMEd+Ys0lnqxkFy\nRdLN5WZQGI7azVvqBqXuZV7f5BycIfB4c7p6v7RpbiQBTi3nIEHHUZTqZGkPfbl6\nCN3FvvXKrrYuACoDdjiaymivXVWjDcDUNmv0BMJHCV5S8lZ4nrJs2i0dN+wSWrT7\nm2LtLNVyDPtN7T10aS5zDEHCzRfKykDEgBHxnt5f0KK89n6TG1+9XphYiIFcl/DV\nvXggTT3rcp8MSAb86Eu5T+9WIY69/o5jehUCggEAVBvx3u3QkkZUCh5c1MPYkLcA\nEjb4PDkQYdea8oeQlUPbPGFM26Ya4tdctnUsJWmGHnA7zCqcT5MUpX76nqkPsyfm\nWtiI5HQpYRmXruu3Ps+raG7lktwbXTVaaenX3hIx74QOahwKdoQ8HHItFlx+Wox0\nmT64phm1Za6xAahcUZLr5NXHb9XSMXFC8FYcvN9//y5V6JgyV+N+SzpmOYC9lYhl\n66B75Yc0ESCNNdfRajW1YPBkzhHqAW1dl/brUWJxwTRk331o2EJUmALrtTRJKHfK\nxOlTNY9LHAr+GpNwYuMcB/BV2/Sttm1CJjhJoXGdik3Ia5lnk8TTxINPBGQrfw==\n-----END RSA PRIVATE KEY-----\n",
      "apiServerCertificate": "-----BEGIN CERTIFICATE-----\nMIINSTCCCzGgAwIBAgIRAPPEMTyVIXxvaZ69pfSbh2EwDQYJKoZIhvcNAQELBQAw\nDTELMAkGA1UEAxMCY2EwHhcNMTgwNjE1MTIwNzAzWhcNMjAwNjE0MTIwNzAzWjAU\nMRIwEAYDVQQDEwlhcGlzZXJ2ZXIwggIiMA0GCSqGSIb3DQEBAQUAA4ICDwAwggIK\nAoICAQC7+s6RgBWd9uIVtWNJqpN57YZjxurNI3D73erkAxwH+KkkLtiQKpKhutlG\n8DtZXVe5hI679mCV2reufpXLEAXLgaQeikwWHliU7KYImlh2cEDjG3ZnyGZpAKQX\nX0MWL8zSyG+mjEBw4ztqbfqoaivkQ3uIcbD9Qx0OKlOpX98EH2xjQZpWoQ+361wu\nrvikbgWtWdOXrgKl9Yasv9kHcaHORIkUySxqk2wQ9Yd+napCoNAEwXODcUT51hSg\nVeeyC2PojZOvyaZ9OOqyQhn0vRgheMdwXN7QLP9cEWWwVWivA6SfCKxhCszNMSzF\nld/hV125fYwxHR7xbXz4BzwEfLeykCuXyuD49hZcr6Jb4rmD+ZJvjhN3y6STuLOp\nO3SW5/U+snsMzM82IA+ruUabSeBoZrngambKxLU9s3YGeX13/KiZG0wXBJsQtZGt\nZRAbeRSnbweE6NVO7iGP63bgJMT7WKgUJHSnXU8mjylj3uCIURi4KF2aoSahFh4B\ny/j8MczinGsysGq4n9JWqKvb5O1YhxrH3IRQomrbUTQc9QEXOSdY/J0YQ3iyAHsJ\nZJklYvlXJVOaT9eZD9Sx2hiVmMYI9ihO4xQvX6kuKbkn/LLFauTnrwP849InlSbn\ne8xBJmdFcRO+yih8BW1zZb5lyYaWoXdrBbeUxGCAsHM4nnXxlwIDAQABo4IImzCC\nCJcwDgYDVR0PAQH/BAQDAgWgMBMGA1UdJQQMMAoGCCsGAQUFBwMBMAwGA1UdEwEB\n/wQCMAAwgghgBgNVHREEgghXMIIIU4Iuamh0ZXN0a3ViZS5hdXN0cmFsaWFjZW50\ncmFsLmNsb3VkYXBwLmF6dXJlLmNvbYIvamh0ZXN0a3ViZS5hdXN0cmFsaWFjZW50\ncmFsMi5jbG91ZGFwcC5henVyZS5jb22CK2podGVzdGt1YmUuYXVzdHJhbGlhZWFz\ndC5jbG91ZGFwcC5henVyZS5jb22CMGpodGVzdGt1YmUuYXVzdHJhbGlhc291dGhl\nYXN0LmNsb3VkYXBwLmF6dXJlLmNvbYIpamh0ZXN0a3ViZS5icmF6aWxzb3V0aC5j\nbG91ZGFwcC5henVyZS5jb22CK2podGVzdGt1YmUuY2FuYWRhY2VudHJhbC5jbG91\nZGFwcC5henVyZS5jb22CKGpodGVzdGt1YmUuY2FuYWRhZWFzdC5jbG91ZGFwcC5h\nenVyZS5jb22CKmpodGVzdGt1YmUuY2VudHJhbGluZGlhLmNsb3VkYXBwLmF6dXJl\nLmNvbYInamh0ZXN0a3ViZS5jZW50cmFsdXMuY2xvdWRhcHAuYXp1cmUuY29tgitq\naHRlc3RrdWJlLmNlbnRyYWx1c2V1YXAuY2xvdWRhcHAuYXp1cmUuY29tgi5qaHRl\nc3RrdWJlLmNoaW5hZWFzdC5jbG91ZGFwcC5jaGluYWNsb3VkYXBpLmNugi9qaHRl\nc3RrdWJlLmNoaW5hbm9ydGguY2xvdWRhcHAuY2hpbmFjbG91ZGFwaS5jboImamh0\nZXN0a3ViZS5lYXN0YXNpYS5jbG91ZGFwcC5henVyZS5jb22CJGpodGVzdGt1YmUu\nZWFzdHVzLmNsb3VkYXBwLmF6dXJlLmNvbYIlamh0ZXN0a3ViZS5lYXN0dXMyLmNs\nb3VkYXBwLmF6dXJlLmNvbYIpamh0ZXN0a3ViZS5lYXN0dXMyZXVhcC5jbG91ZGFw\ncC5henVyZS5jb22CK2podGVzdGt1YmUuZnJhbmNlY2VudHJhbC5jbG91ZGFwcC5h\nenVyZS5jb22CKWpodGVzdGt1YmUuZnJhbmNlc291dGguY2xvdWRhcHAuYXp1cmUu\nY29tgidqaHRlc3RrdWJlLmphcGFuZWFzdC5jbG91ZGFwcC5henVyZS5jb22CJ2po\ndGVzdGt1YmUuamFwYW53ZXN0LmNsb3VkYXBwLmF6dXJlLmNvbYIqamh0ZXN0a3Vi\nZS5rb3JlYWNlbnRyYWwuY2xvdWRhcHAuYXp1cmUuY29tgihqaHRlc3RrdWJlLmtv\ncmVhc291dGguY2xvdWRhcHAuYXp1cmUuY29tgixqaHRlc3RrdWJlLm5vcnRoY2Vu\ndHJhbHVzLmNsb3VkYXBwLmF6dXJlLmNvbYIpamh0ZXN0a3ViZS5ub3J0aGV1cm9w\nZS5jbG91ZGFwcC5henVyZS5jb22CLGpodGVzdGt1YmUuc291dGhjZW50cmFsdXMu\nY2xvdWRhcHAuYXp1cmUuY29tgitqaHRlc3RrdWJlLnNvdXRoZWFzdGFzaWEuY2xv\ndWRhcHAuYXp1cmUuY29tgihqaHRlc3RrdWJlLnNvdXRoaW5kaWEuY2xvdWRhcHAu\nYXp1cmUuY29tgiVqaHRlc3RrdWJlLnVrc291dGguY2xvdWRhcHAuYXp1cmUuY29t\ngiRqaHRlc3RrdWJlLnVrd2VzdC5jbG91ZGFwcC5henVyZS5jb22CK2podGVzdGt1\nYmUud2VzdGNlbnRyYWx1cy5jbG91ZGFwcC5henVyZS5jb22CKGpodGVzdGt1YmUu\nd2VzdGV1cm9wZS5jbG91ZGFwcC5henVyZS5jb22CJ2podGVzdGt1YmUud2VzdGlu\nZGlhLmNsb3VkYXBwLmF6dXJlLmNvbYIkamh0ZXN0a3ViZS53ZXN0dXMuY2xvdWRh\ncHAuYXp1cmUuY29tgiVqaHRlc3RrdWJlLndlc3R1czIuY2xvdWRhcHAuYXp1cmUu\nY29tgi5qaHRlc3RrdWJlLmNoaW5hZWFzdC5jbG91ZGFwcC5jaGluYWNsb3VkYXBp\nLmNugi9qaHRlc3RrdWJlLmNoaW5hbm9ydGguY2xvdWRhcHAuY2hpbmFjbG91ZGFw\naS5jboI0amh0ZXN0a3ViZS5nZXJtYW55Y2VudHJhbC5jbG91ZGFwcC5taWNyb3Nv\nZnRhenVyZS5kZYI2amh0ZXN0a3ViZS5nZXJtYW55bm9ydGhlYXN0LmNsb3VkYXBw\nLm1pY3Jvc29mdGF6dXJlLmRlgjNqaHRlc3RrdWJlLnVzZ292dmlyZ2luaWEuY2xv\ndWRhcHAudXNnb3ZjbG91ZGFwaS5uZXSCL2podGVzdGt1YmUudXNnb3Zpb3dhLmNs\nb3VkYXBwLnVzZ292Y2xvdWRhcGkubmV0gjJqaHRlc3RrdWJlLnVzZ292YXJpem9u\nYS5jbG91ZGFwcC51c2dvdmNsb3VkYXBpLm5ldIIwamh0ZXN0a3ViZS51c2dvdnRl\neGFzLmNsb3VkYXBwLnVzZ292Y2xvdWRhcGkubmV0gitqaHRlc3RrdWJlLmZyYW5j\nZWNlbnRyYWwuY2xvdWRhcHAuYXp1cmUuY29tggprdWJlcm5ldGVzghJrdWJlcm5l\ndGVzLmRlZmF1bHSCFmt1YmVybmV0ZXMuZGVmYXVsdC5zdmOCJGt1YmVybmV0ZXMu\nZGVmYXVsdC5zdmMuY2x1c3Rlci5sb2NhbIIWa3ViZXJuZXRlcy5rdWJlLXN5c3Rl\nbYIaa3ViZXJuZXRlcy5rdWJlLXN5c3RlbS5zdmOCKGt1YmVybmV0ZXMua3ViZS1z\neXN0ZW0uc3ZjLmNsdXN0ZXIubG9jYWyHBAr//wWHBAr//w+HBAoAAAEwDQYJKoZI\nhvcNAQELBQADggIBAFtjBpNnD5/cGXdN2vSq3MzHv/lZ8/1f67TpLbH2r/KEz9Du\ngQjcyiD8b+x2vsk7PDgYexiHk7Fv4tT1dnsm+Ktr7FNvhSxq8dl1aTYpzpgG2Qlk\nUbYYCa8JseGxgXuRdIbzrhO1B/8X7ksGcP+Lc0NscdIKAMDQ5g9gkzJXG9x1hzkS\nQj3jdL8CArxgAAfSvu8Wq/UlchUTIopNAbMtoBlqr5SuPnV2c1g+HeCTeYkhsFfS\nKNY3nPvk2mDsELQ0u024GbrCy+szfrl+P9sj1RxuG9LsmQwdPPAbw07sqxsH/wpN\nAICgH0EiDt094mUB7wiOI+J8RH88lg6DEeC6P3RyMO8avxJ4MdN+VeI6XeHszuPr\nwUs1vSm4xph6UFFV9+Y3+GLbs9WRqdRDcmjmseq+WPCwnQzK3Qju64/HH8YU0zYP\nZv3HnsNCy5V16UwpJcbLKobZH13OyiTeVmTEb0zkZKSifCnSPc0pjwBOtHwiNqFu\nmDign1PC+XhuR3bbFggbfN1qmwCRtkrug4T8mRR5ZxmfyQSVmYJtwQI/kmKf9B7i\nKNGxUf3REl22uAHVm+rXcZeuj9d5nNMNqyJbtNMAaUxN6hDrakfq0OLqRn55QUBG\nDylVUZkfrjfxOZ3mIaVxeT7wDSzbY827yiyjf+5bLraqchHVY3QsGWaxtnRL\n-----END CERTIFICATE-----\n",
      "apiServerPrivateKey": "-----BEGIN RSA PRIVATE KEY-----\nMIIJKQIBAAKCAgEAu/rOkYAVnfbiFbVjSaqTee2GY8bqzSNw+93q5AMcB/ipJC7Y\nkCqSobrZRvA7WV1XuYSOu/Zgldq3rn6VyxAFy4GkHopMFh5YlOymCJpYdnBA4xt2\nZ8hmaQCkF19DFi/M0shvpoxAcOM7am36qGor5EN7iHGw/UMdDipTqV/fBB9sY0Ga\nVqEPt+tcLq74pG4FrVnTl64CpfWGrL/ZB3GhzkSJFMksapNsEPWHfp2qQqDQBMFz\ng3FE+dYUoFXnsgtj6I2Tr8mmfTjqskIZ9L0YIXjHcFze0Cz/XBFlsFVorwOknwis\nYQrMzTEsxZXf4VdduX2MMR0e8W18+Ac8BHy3spArl8rg+PYWXK+iW+K5g/mSb44T\nd8ukk7izqTt0luf1PrJ7DMzPNiAPq7lGm0ngaGa54GpmysS1PbN2Bnl9d/yomRtM\nFwSbELWRrWUQG3kUp28HhOjVTu4hj+t24CTE+1ioFCR0p11PJo8pY97giFEYuChd\nmqEmoRYeAcv4/DHM4pxrMrBquJ/SVqir2+TtWIcax9yEUKJq21E0HPUBFzknWPyd\nGEN4sgB7CWSZJWL5VyVTmk/XmQ/UsdoYlZjGCPYoTuMUL1+pLim5J/yyxWrk568D\n/OPSJ5Um53vMQSZnRXETvsoofAVtc2W+ZcmGlqF3awW3lMRggLBzOJ518ZcCAwEA\nAQKCAgAOO4UcWxhH54NipWMpFrMnziYYs9zfP0m0qC66qMmciOU1ih53e+GyQRVm\nW5YCxCB6OWEdNiBF+FNj8M2inEn0CJLGhS4RlqaaT/iaOiVsgj9HcrLaVL/8P0It\nStcnfOMDKo3ZjFDsuyeqfT03NyKvm7RktkbyRfyTL/05m7qk80Qfl735xSQNhtJp\n7nGA8ZuYbm6o01H8AsT5m2TxPVdE6MeAPWMRhqvt9MkXexSDCu31DjiSwSa5y82v\n/hEW1+nul5mQ+7GRVZffe0W/0/lZv21KQp3UITQMYnzShwTwC1SRffSfPFQZTRnY\ns+pJg3XjL3BH366SFPobRWDz7gVybFus/erlVDlKkiZTIstxFU/Rm9o57gKBenKP\nvkE4ljsPC3FoHvhQhFMSZv2jsB7cRI/wiItAwNfvuE96iodCqKvkQuv83pe6ryQO\nMrgwjSasF0jIP+HGX2/LstWK6wGWS7tIQXKEmSjnEujzCC/wiPQuZP6fse4pkb8q\nU22GWSrkg+eQe9tFVCwcKJ/hbBOWraxGyhOQJmZuYUQ7SVCJX49wx1cTNRMs88PR\nOKKor0Y6ZLBDHyWSoh6LjxgUoSaLuX90VXGodtU32ajns5jVXwnf1BUx22MkYsuN\nBen9DXbsuAnDgchupqvPuL27L7zYo2uGqfyZBFr9MKI+SqCGMQKCAQEA5U4+7VDN\nvwKcOVxbT1jZE621BpyTd40I3/xZHFspcn7Z/hwrtN958w1nQIoGiWMfsj9O13SI\nAcKAvOyWFeUA5IFmEKzdc9aUFO+/iNnaf95P7u/8UOHUt7U5glFOQeoUvXfUMKzI\nbJmefKChqVPPmQ8z6kSjqx7tO/Lr9grGd2wojHPuge+elwsqwejlVtC9eX905dGh\nqYfFftd5xnt74Rot+1BRlwbtFfzhobFNBzm9IX6q8n6wdfOc4Xvxl2DVZ7fh+MbX\nko0dyHJTwB4F9JKATnasGkv9mKTrZXEZmRl08HEFjznV9SG9AJqPLX1ewTXwTO5P\n08T+Ix8ClObXEwKCAQEA0dz3ykYEq2/asxsdTmu27oOwH+BBFDLPNV+YuJZxguUL\nUjgawQhsLNLeUOfHvL8Ycc+jmzZLoWC0E5KugW0RDHcEDPt7eGKaMkpcH8cPEPwU\n8uQRloFXr8JVp+wBgM3VGZxjNCC1yVGIs4AYGly0Ifhr7wGBnK4PsNtR9iG12Ns5\nCn42E0C90Pv8FtfoNvjdcE4D6AcTlCY3yPDICrnivg8CACwkQQKJBUfux8LwtptM\nRR0SEKVGuJE74+P0h173FpTbsFAiOSjtQIc/uoqV/R6PhJ0bGfTKBz3+5qH9/zhy\nJHedtBLYDRK8Cqz5TosBLLTwK6sWdTLnlr95k/137QKCAQEA4L8iOiOapP5/9FCr\nRkgE656z8TkB6IkZC8Af7wUCyK/AJamixPLMagbXDpC5+2pmJKScN9yFeYQT/he8\nutTrXQve57UmkGTeWu7pQc6UtANHQR+CpBvUDALZzPq3wy8VCOcr2FFhV9/xUKF4\nEaiNrq0R6yk/aXc0ei+MSmkhQOeHjrIKMNyVCeHuFISaU87gBvd/sckXtDvYvIuh\nVYKuVmD8dHeyoF4vff+PfpVytARJdUzbbDXz6ofNWcvLbN2CDNhT6SurGn6plE9J\n+uDyYVY936m84UFd24C5H4IM3tvum8OK+WhsZoic4LycXK+mcaTWU/C32Q4ZMH8y\nXpMqdQKCAQArf7Gcq4asQjMCjMw2RP1V0tXexYy3sxBf78CoAgblKrR+BkMFX8mM\nQOjzvBcaeEGI1ZEDyu1CNdkddXnWOdUe0Ex2pGmjOkzbv634qDnnO1jcP4mluImE\nVLOMas6k9AUHmfK2C1GiuNOs4RAd5rkvkV5N2/IRl8KI1ezXJ4WZvVbFZgOvWev+\nNTy7P2VSf6LmdEU7Arx8KK/HZqEQGBd3bYTspDmff/cGsTI9FZrvPqFAchYcfSV7\nfB79zXIR3Q06EQC4OuPdFS6YAXCkKbWNEZiN1EKZzrNRbPg4tbr/+6MtC94URROj\nIg7354KFVSqZKafeZUfyYuq9xFJe6lrBAoIBAQCru+CftPWksHguzT4QFbC9i8XL\nD6i7gHjqO8DXMSi2vBnPqv+vBT9ly9EVmQ2iSLsP/N5U4ClLxnNOnMU+WUcVLAOB\nAiHjQVmIMpoqKQGwQKWCO1/IEYrAz9wMXT/Ukz+S3xUmSGGJLLkXcM/JSjJfVM4X\n2tiBTf5BnCdH+mfffQhLhp6nTHXdenSbQmEBEh0HBgo9PiTqnu7G9ObsTEAo4znu\nhsYrrscRX8hpsk5lXm708VWN+P+5ttqqPTfEWaSpgOE+G0F+I+DZOl8nIDOeG/zi\nscEKTfO3Tdgj4mjdzpXoTUuvfLeRaAR82zBP6EafnRj4thJ91qRis3MMLYgb\n-----END RSA PRIVATE KEY-----\n",
      "clientCertificate": "-----BEGIN CERTIFICATE-----\nMIIE9jCCAt6gAwIBAgIQKQ3UJ/dQ2+xNY7MPiF/aIzANBgkqhkiG9w0BAQsFADAN\nMQswCQYDVQQDEwJjYTAeFw0xODA2MTUxMjA3MDNaFw0yMDA2MTQxMjA3MDNaMCox\nFzAVBgNVBAoTDnN5c3RlbTptYXN0ZXJzMQ8wDQYDVQQDEwZjbGllbnQwggIiMA0G\nCSqGSIb3DQEBAQUAA4ICDwAwggIKAoICAQDXLxSDBesKIERe8TdgAE+F6AXW73XH\nikVV1L9PPTP+HRykzIwiBJgiNPbOsdb6zKXZN6MVDypk3souEYl1TzBFuHhyVy0K\nFhgYpOVKoQlp0Eu1wt4GqXEs6ot7sXB/2Sswm08qVkunlfiF+UKL+dlPklJL6ddM\n/7g6BBRalUhEfwGzw0Le2AlkUIVSWUapAseUMX23UEX310MLq050/7W+25N8WCdA\nIaMdiJ2hZ7Plsoze324SlwW8sgdadqpOreNucywWHad5pmQUK5zCkDTKFzmCam84\nTxkZCHp8MvKsW3JSUTpJbJmCjdvgW2HtSc2/9lled/AN+XJHsAEYskzqHm2aX5aL\nXSBlPPTlrKChEebFsSf2QpJLcUPSiHnXdPqV6s99dvDaDe5/gMb6QxAJu0fZzqf9\nW7H5kfjhMqNpm9D1GLuHGodkh4KMVtJVr+ySuGnl1z6qtOr6FZwZwmVprkIJnCR2\nn4xBGZ6Xe3daIDC9T7uLflSKq+jHnLAhz8qAdX3BT87uWVXogg0fDA0/4iJ17j7i\n5lseUt3V/tWRi/qKB8AJGhyMECV9OwK2YAxDKxnWVTBeGCPSVS4P7v+XLvygw4mu\nIMb05qJ5QzKnNzpg6Ur4Iggqnt/GB7mjlnGCT+K9OBDe2VoLgk5IHzca1kkC/CJM\nhlCKwlxeUGsbjwIDAQABozUwMzAOBgNVHQ8BAf8EBAMCBaAwEwYDVR0lBAwwCgYI\nKwYBBQUHAwIwDAYDVR0TAQH/BAIwADANBgkqhkiG9w0BAQsFAAOCAgEAq9jta3xY\ny6dLh0T2KuhUwlptnsMvudRAkalKB5I+++n0iMxIvaWD+286sFEgVJzLCoDwynfn\nKO+pZoxjls8N9dO03By8eCg7W0N1e4dW368U+cZuKQ7dSncB2zLBp7RsD6bFmdlM\nWC/IsUqHkPNeQwakIk6JfZeZpqGO2QfgawBX5+8EyEc76IQlZfizVOtEQl3vIfsL\nzb+MTDucD/arfzkFRTd5FSNP3msETffhlH22L4pqQtIgmuruRlUybWJOBeEZV099\nm2ku8xJmT2zL5SacsZxwdl6x349DMSatyY8XdCE79z2IUBoNuQeSQ+uU20lbRJPj\n3r7K2YaAKjojqMXCBWRiv2sXJUL/8Gp2e6Wp50q6HWMHUruBvjUaN8j0W6fXLDbG\nUx5Z89K16TQbdlW+EkueFVhuW7Up7v5SGCMOrvo5J6/Fowwdi+xiN7B2b4508CYs\nsxfqlAAt88+yiXAxuLHH+mqgUCALfsu606MeM0vcBXBy7lTZ5rLx+2qiZrzBTUWq\nZ3pcWcB11WzfnxMxyirRDouZz6+RS7c3t6FPx3bW87YKevj54AvwmtsQQlw3V9sr\nDQKuS0dOMsO5ZXRB14lR4VBiU8kmMUbu2yUAl+M0OyHW/CQpn7rJo8ppuoKEHnQW\nq84NZ/LlZq5yATeRu5hgTN4bxB0XrUgHxLA=\n-----END CERTIFICATE-----\n",
      "clientPrivateKey": "-----BEGIN RSA PRIVATE KEY-----\nMIIJKAIBAAKCAgEA1y8UgwXrCiBEXvE3YABPhegF1u91x4pFVdS/Tz0z/h0cpMyM\nIgSYIjT2zrHW+syl2TejFQ8qZN7KLhGJdU8wRbh4clctChYYGKTlSqEJadBLtcLe\nBqlxLOqLe7Fwf9krMJtPKlZLp5X4hflCi/nZT5JSS+nXTP+4OgQUWpVIRH8Bs8NC\n3tgJZFCFUllGqQLHlDF9t1BF99dDC6tOdP+1vtuTfFgnQCGjHYidoWez5bKM3t9u\nEpcFvLIHWnaqTq3jbnMsFh2neaZkFCucwpA0yhc5gmpvOE8ZGQh6fDLyrFtyUlE6\nSWyZgo3b4Fth7UnNv/ZZXnfwDflyR7ABGLJM6h5tml+Wi10gZTz05aygoRHmxbEn\n9kKSS3FD0oh513T6lerPfXbw2g3uf4DG+kMQCbtH2c6n/Vux+ZH44TKjaZvQ9Ri7\nhxqHZIeCjFbSVa/skrhp5dc+qrTq+hWcGcJlaa5CCZwkdp+MQRmel3t3WiAwvU+7\ni35Uiqvox5ywIc/KgHV9wU/O7llV6IINHwwNP+Iide4+4uZbHlLd1f7VkYv6igfA\nCRocjBAlfTsCtmAMQysZ1lUwXhgj0lUuD+7/ly78oMOJriDG9OaieUMypzc6YOlK\n+CIIKp7fxge5o5Zxgk/ivTgQ3tlaC4JOSB83GtZJAvwiTIZQisJcXlBrG48CAwEA\nAQKCAgBZnRzAuA07SVbP50r1awuzK36LFWyKbhYT+aa2fDmT4VHVe+38GMe2rzH9\nwGhUSDflb1s2YPt5yKKQbvM87H6g+oMGszFpmuvsD3gCDXCbJYjyKDZItfYRC5iN\nKcc9JxbqhjOA4TFemIFIYhcJrkKG9dvaC4eDZJe3aY2Eb9kJ1Y7C61WE8plusm3j\nbpSTvDmbiMTfO8n3vikIyg3BgeCRnGYeiaPG/HsuyH9FAagUx7gM9SWlDknwXH/d\nd7/TRm2JyOMaTr05V0ckc0k0adPiOavUmTi6TY6ZM0O3R4xypR7GE1ffzh9cFHH2\nTHhK1sqd4B01z2MknrauDilWvKJ0tfCmOkRiXfA8/vOIVSo06JK4fc+wW5CXZVGK\nmdrQwgmtcz9liQR2hKN2kg2sdz9GNYNIELGqmD6Htc85dpkxT1jy+1IVi/VXIqQH\nQV6jEHCBnmbAJW23TuFf1TSSbJCNEwndl0TR90N1nrkgWmyOSfGEN7rJGRNWqKL4\nParUehfcxLNbfeb2eMaXbrKYnLWewmyPNTR/EoTTV3YiubkLQ+Bbwjc8vGzdrr4W\n1KSTGdYTMKHR1DIwQ3ZmLNoTv8/YQCWWKU7k/DBOrvbuHiSkWyNjD2HvhKQ0NDVY\ngWTrh4Pa2U0wocDvFA4gERmavBUcAc5vsBevIXQVQBcUa6lqyQKCAQEA3jMasy7W\nuRfO163T9BryvDWyHQQhFxbXoBXCwsYTRkRXuWWXH9nSZWJXHGIgjQAfUTBA+2xD\nmuNQEZPSurM2MEP5iE0xzsaSgg3TAZsoGZinlNf8sqbR4DKuh/GxpAmbtPMOxMJd\neVSFiXPa7lMCMJJ3YvVpsO+SVg4jjpkKEZKMHfPaYSPGieA195D7VkCllMy7u9J/\nnDQ19obgZVtauM1DtPf/DrWuCi3spx/d2AtebBJE7f9IZt4RcppmLN0kDxaQ+9iH\nX4a50k1KfF/D1DC8zUmyui386Mt6Y2GASiUKq9vZv90BB6+t1+GaVOHd00hWWQAv\nAm5M5g3UnWYdFQKCAQEA9+rFDkuUULeo/AEc4EcUibcIL82+iMXtdC5L/t4XVbfL\nnunlqTWOSMC6oEpWqw/uHxQCLZclktYSj3C9tgQuMy+KAG7s49/IKdaXuMD9Zyu1\nDA+cu/ksVS/qxKx7rIlH3ek2sSECpYifzpKKd83T8LVHr5vjNBt7jroE+C23GGt/\nRzBOMOAls9E0KmYo81ZUbEaGu5hF2L444fe8JnTUkGDRzayYPm5cUxbLNApknPco\nPGE0lNx+jSUiYBC8Vy6FUkAak7pcB+CT7kOh7jO1y1LRzzake3L022fCOPYohx/h\n2tw4kApc55MVlwyV4AUw8NuvgwhPRe3Kc4EeJ3XnEwKCAQBa9JpqXLMCw28lNH+9\nvcY9KtHFNOqCtBQB8MZvynsbWWB7gM1y+Uw5uh6kfLqMXU90gYcoJDIsVf5xo4ww\nZqm46ipcFBVeakSQvi3wy12H1MhMknlbfBQPbU+qUFKCLnixgok6G8H9p46eLHGi\n+xG7Zkk+lez0w6yoU1NUzOqlNNLsc+ShvO5JhCEzPQLVVNMy7PewM8OO4oRwbNew\nRcwGN+gOTTH4CIC8o/3qj43VIRo+rN/QeJ5flWmY+wD2PnPDRV6F6SXJAbJRFth1\nvxG/a0/tzMw/kBGmDZ0Ez2WfdDhBD1a8RjBkwBIue6gcNPUDxumptvyHRzVtOp4c\n7C7dAoIBAQDuMPv/DhKDstGCvbb2rJRI9DfDZhOn6TKJK2oMh2k4DAxwtBzZhAEe\nWT11f7bhR77q0Rh+oPeSqmbOte0vkbipqQUYAXtMPNddizXeZl2Q4GdkHSPjXjV/\n6zfOmkGAtaz8wnKvoB2g2TFhEV5EWNdGL4WebVHP4I/Hw2W+5H1D0xRIW1rkjpbq\nuxc5nUm+8bTPCrusRVLmOW0BfjmhYSJRTRSGXUswwGun0QCPEWU1gimASYxxcZ+N\nEJ6EWc/6m1GwgrKGOMjvMJAwnX5ZFAmYPgwi4EcL7JjgrEHo5Ghv2uvukSMvESXN\nwH0/0PG2eIZbA1cPt84iS6L1cpp8I0VNAoIBAEdRAzr7HHPfYH/Cf+1oZBnHUQYn\niTNSUuSKhfHFuE6pyG4PGRxMyCF+Jdz6qUeQPTnJoycUBzgOOF+3VGkwhgyo6MgB\nNl5rnfMYkjp33UeUT/CaNeK68GS336fUCg12skl6lgELdb+vjbpOD8Cq5yeZMSYy\nSws8ILR5B70IpwTC94Sum5uo+YkYQtMHMBtl5YHO6GNa6JPg9snOEPNg2LZ5ak90\neUFHvnejwAVSfXthhAlNAwIsW0go+VkRMumdtYyhDwtg/+fAUaBVu0RBEjLRf4PI\nfrm+ymkinPMJDgYfECojNAIMtFwOReW4fidglpwRzhCLpTPAtaoCKcu6bCY=\n-----END RSA PRIVATE KEY-----\n",
      "kubeConfigCertificate": "-----BEGIN CERTIFICATE-----\nMIIE9jCCAt6gAwIBAgIQPhOC5nZkBWjrSWJa4SpT2zANBgkqhkiG9w0BAQsFADAN\nMQswCQYDVQQDEwJjYTAeFw0xODA2MTUxMjA3MDNaFw0yMDA2MTQxMjA3MDNaMCox\nFzAVBgNVBAoTDnN5c3RlbTptYXN0ZXJzMQ8wDQYDVQQDEwZjbGllbnQwggIiMA0G\nCSqGSIb3DQEBAQUAA4ICDwAwggIKAoICAQDSp/lGmSQp+X83eG8qxaivo2tcDy1b\nfIjutViaTxdE9/g8zcYh2vf0n711jBfDNw5Kty9cNd9Y60/3eEMZ1WITz/dpohbc\nGYlWoRLxOXDKKTqriBw77lBAuObTMfHdWFmFXorhnaq4i7pM4z+z7xnzFRxZ+teU\n/+3Qgjzh6SjBWz6YiKZmZgXbF6DRKLuMHg7MQvN3GHk87yYNYyVepWJLEJLhZeJE\n+jMxQfC1zVY+ZcYjy7z3oOWBHteCtcLJEXq57vx24Wgnz5F+cf7YHN/9IUHrEzdg\nm6xx4qt3LeCAn0u4d0lWBiAU2uIFBNCzUVm2hJlxU5XsvgB6TrLgmlWOPEZUkfK/\nQSF4710iR6x7dnaQs97OIIcRrl1NDvSNM5Ex7SLo5ENGcS78AmB1dJpkRgerb/Lo\neD8taadPomtUwNAp+raNqFeDCXO5NzeedeoToy5Wx2+pVlTgLR12Okts3YCcuysa\n1d/EbTpgdeKKA/fqtprHn0nS8w2AKHU6czFhKfJ1yanltTf5KaGRCabenMVIP4Nk\now1+GuwR20fFGtIFUpZW/k7cqLWaLfF6MPBLujcMPjf/dvbmbt+xyVI+IayQ36lC\nIlmdoONG0VXJtoTaYKFki1+GG/JS0XeSMaeVj8ZKHQWO33bgqWx/bADEKLvZd/wL\nq+uuZPI20fXHAQIDAQABozUwMzAOBgNVHQ8BAf8EBAMCBaAwEwYDVR0lBAwwCgYI\nKwYBBQUHAwIwDAYDVR0TAQH/BAIwADANBgkqhkiG9w0BAQsFAAOCAgEAU0PPL7nZ\nNvUOvxo0bU/HEcnk5EKzqf0E37QofnSmYTu3vAvbpePalq/zGOvKyWArc2k03kP7\n4agqn9/ahkoR4ICofK/DAtvH/Jmq8za5Qs5+VO4X7A9jYXAgJoDutr502nTWbU61\nd6pqnXHjMLkna7dKKNW8LKBK0KztfbXCmVMQ/jsq53Y1RlVd0BcIoeud/dOJ2nFF\nOJ6xF2iOXR7zSYrFB8/h1Dn6FqQrFn6mUVCZsszEoXcf+UlLW7XfdwuB0Th7X+E1\nlbMbqK2/R9SE1wpsKhqDcrP/E7kDwBXBDhzxgpb9ZcCypQuRCuHuOxd36nhrB/kN\nwjgh2D1y3b/y5ShKM3L0ZzxgHC9rdCM5eVetLaeFzKQ9LZb5BqLNajjyeB1pHPi4\n/PyZXkdjAGzn3aQ+TkmYpGyIpvpHXN6i3SA6/1x9wwDjO89TOY0j9vfwuBA0+BU2\nRRkopjpfVxFRh0QAF8M3JiXbrGBEoWJBZfSrPA8pAFjJ69ZMFDyzOh17jG3UrDR2\ntpKCvh8V9LjbxbutLxxaERTeqAsTA3InKoBQvWH32+Cu0aFrnwv57O0fZqzmpVAn\njt5k+s4iECfr7hbGY0KYlLRRH1zV3iEmA9teTu34KdwdR/bykV/FStIqfjnNI5Go\nvxfGhrB7hH78VSImYj+o8lhHgHIxjV6NC3Y=\n-----END CERTIFICATE-----\n",
      "kubeConfigPrivateKey": "-----BEGIN RSA PRIVATE KEY-----\nMIIJKgIBAAKCAgEA0qf5RpkkKfl/N3hvKsWor6NrXA8tW3yI7rVYmk8XRPf4PM3G\nIdr39J+9dYwXwzcOSrcvXDXfWOtP93hDGdViE8/3aaIW3BmJVqES8Tlwyik6q4gc\nO+5QQLjm0zHx3VhZhV6K4Z2quIu6TOM/s+8Z8xUcWfrXlP/t0II84ekowVs+mIim\nZmYF2xeg0Si7jB4OzELzdxh5PO8mDWMlXqViSxCS4WXiRPozMUHwtc1WPmXGI8u8\n96DlgR7XgrXCyRF6ue78duFoJ8+RfnH+2Bzf/SFB6xM3YJusceKrdy3ggJ9LuHdJ\nVgYgFNriBQTQs1FZtoSZcVOV7L4Aek6y4JpVjjxGVJHyv0EheO9dIkese3Z2kLPe\nziCHEa5dTQ70jTORMe0i6ORDRnEu/AJgdXSaZEYHq2/y6Hg/LWmnT6JrVMDQKfq2\njahXgwlzuTc3nnXqE6MuVsdvqVZU4C0ddjpLbN2AnLsrGtXfxG06YHXiigP36raa\nx59J0vMNgCh1OnMxYSnydcmp5bU3+SmhkQmm3pzFSD+DZKMNfhrsEdtHxRrSBVKW\nVv5O3Ki1mi3xejDwS7o3DD43/3b25m7fsclSPiGskN+pQiJZnaDjRtFVybaE2mCh\nZItfhhvyUtF3kjGnlY/GSh0Fjt924Klsf2wAxCi72Xf8C6vrrmTyNtH1xwECAwEA\nAQKCAgEAi/yB449a/+XDy3nl7feB/I3Nh1SyoIwmdvLd2VVbskJSnR1lYBQiGFaa\n0WVyWRDaF36aI13NeUqOTnaFqMIrNd1KndDP/h2eLYpGizTPphg1281MbesVO51k\nDs6u2peejclg40MiMxbvi66sI4dtqCLMP2M5JdPZFmmlyb5mje9zrmuIoJ2FoK2X\n+cZms1s6HDUVk3wY/QwzLkxHhhjDM/zkjpJlBc96e25FZpr4h+ib/iejAK/UM7Tq\nI/tjYLiT5MFS1jE+RM5j8jIQ106A7rbOFkgj0bhBpUCrDzzWZsL0z7W9b0QMx68Y\n6ZrkkXUq9+YwDaYtCDDPInfv2N/Wn8QrbJ/PTJgRUNXNImAzvcOBohljDw3xrgaK\nYH+6lSMpoNAzvIq9KduwEeXvZZZnmDffHJVowB+Wq5E/WYep5MwrLOKd/JGBbehj\nLbDQiiRiTyAavfz6DwwD2ZwftmLXGWNG02WWiJPPiVoG2xbTh6udtG5LslUIyZDi\nnuatv/pqeDvBMkKPAnjmgflKVympqX5CFZI98mZ0hSDkm+tSEwEIkBZbrADsIkbx\nblGuwQXKFpHtM7c6ZFgMrFCDGhd5rys23bz0Pwe/yqjgPRE+t9/aWx2KPwlwWgzl\npKTtJAanVLLAQgokGL5TaZKnroFST8NH0++D4Pl8qJf1ZObBrEECggEBANf1TEk5\nZvmVNj2AjxSgR4yFXVy5uKPBJd/h+GuNfptbWFe218xiJYjAXlO8vW0M1gZtCzbP\ni91Z02n7kbtFLCnCmn8ZUdaaHzrpaN9DUUejVMeH8zAJZpmyDR/Bqld4SDsmwVhP\naU85aNQtIZROS71DSU+NPA9HPPHoISILL35BUbfy74TSY7xfhiCnzj+NIV5evN6O\nTxqSCLCV66mpV9EaTHK0hEqa4Fo0XgcCHNRLlClmElK7PLxsJ0IPc659iNgrN2Zk\nhZHnPXZIsYcAowlr0bmzR5ruYShlOTmCA8wMQFghGXJNrEtIbNxDJAwAeTLQzzuD\nassZ3zKFqZd9rykCggEBAPm3AgvEk11ZvP7Fj5mY8yWRZoiCPpBiXmHqYXU8Jy83\nR0n0e51WyczeqwCIS01fa48EHl8Xa4iasSqhBXaw/gOd8g+ZB5nElpPdKoeE4ZBS\nTg23DxgsEpUeI4fB+r5Xjyf14I53/K6jaXGJmPjITaKOO+j+sXduyygif36JXpul\nUM2l4eMvr5ZPV4VDAAu5tOu1gcEXerevNONpIAEox4Xmn5NMAo75uRPfMKXZngG7\nJuLk/NU54aOtAircBNYZS/N0YG260ThbjeCCmb/BkThuttEdl+4QnbkDJ2Rlrrpf\nqtycQauI2UJrzypUODY4YDrvoqw0WENYfUr4qJijzBkCggEBALg/lkha6xpBTbeH\nOYuVe7XOCuuToI5FufSbLIFGhSAy/NpJKzA7BF76EQBMZSjm7Ksq2Yh35pKBkrg3\nZAxsZdNzLrEFfyci80Yl4c2p92yxUyGxQbBYNOsoV74iUxyxiJ6+3/JiPizThDaS\nErYfXsso3yE6FGXMl5ikPbB37ps/S2Mvp16gyWrr7NlrkbHyzOdg2K7gp2i58yQF\npLxpuHy0fUjX7o5gOM19JEPCb6pImS4A4d0n1hfEBnJ8EGxsuhYEOQ3o8XSb33pN\nZvkReAgPry1KYeszOj1mrz37SRYL1dHa24UD891++zGpLtX2iXDragMSikih2CWY\nmCqhlpECggEAR7DJrpU19YPw5XfUfTVTAQMYW7KAwbTsAdJnPmARo9WL6uh8oLQs\n5Vs73sBCVilB2OJG0egIYESA/osR5Xx0wJcUynOVogi1bif9sMBufZ+Tdw6KD9d/\nUj4/1xbSpNjAaamGWYCLE5wohocJWssutq989axBSNePDauxzKMlfSvd4dxw2Gd1\nUoLezoxos/URwuXuJYBXI+ryFSO2I38QoRmP0Jru1RtOjizya3rpiPew90zkZVbj\nt7jQuXtHDCxhCLjtgjMzI6ntNnpoJ4wr4/atF6YWWyt8DISiR4mFu04B4KoflF6K\neS44YJ+jL7XJssHfgu7YNCVwexieVowX6QKCAQEApyxQsksWkNYGu/ABjw29sMWP\nFJ5faz9wiVhLVH0S7h/mPltMFUljyJgcDBtU9xG/aMqkFrO0JqlpoEtKgexmtQqC\n77olYHZ5FAIIPCnYOleOXMXDkfs9JXGDcO3A7U8wmHikLF4q7mOGJZVliSQty4Ij\nXkNUtpWhDDonzLWb5ZxhaxGFfu+52+R+4VWEHftrlDXFCQA42qbTPhemHoq5iayC\nz+tIHJDgWApcWqAWaTkiXc0Tyf1K2M0J3jgrcfq0QoBxZg0eUB1s7U/BGYV3ULqS\nX3D480Gqu+UWN+NyuverdWTYOFJcvxCP98jQ7lnPpV9m64EVTCMOaE15m1zYAw==\n-----END RSA PRIVATE KEY-----\n",
      "etcdServerCertificate": "-----BEGIN CERTIFICATE-----\nMIIFDjCCAvagAwIBAgIQFaBzsYKfeh93MlsCY8VEGDANBgkqhkiG9w0BAQsFADAN\nMQswCQYDVQQDEwJjYTAeFw0xODA2MTUxMjA3MDNaFw0yMDA2MTQxMjA3MDNaMBUx\nEzARBgNVBAMTCmV0Y2RzZXJ2ZXIwggIiMA0GCSqGSIb3DQEBAQUAA4ICDwAwggIK\nAoICAQDLDgUviSjtIABATRxBnRxOdMnMY4sUURxlqxD2XHU3ASPEkkILke1VX1f6\n6IH0Ffg+CDHazOnzPn3lAg8C9MT0JpTntyLL1gJyBQHQ2iFyhgsRMJ+RUU3jlTQP\nxMMDgBF5uvvrr0DE+qXmpvKRq9sMV2t+dgai3Rgg/sdWTDtoQrHjEVPhf2C5c/tG\ns8zIr1LHOc/J6ja+sW4XnruFAlKJPNN0JkwJSpTziPm3FffbaxPMYPvvcKQ0xcrc\nLSuDrXZuFWteRnQ8i8Ghwt+ZtVBMAl4mVYxboQRcti5Yh+b9tIMOag5dtsHw61vF\ngjdSMOWRUOshskkTc5CU/mKh+nz90F6FNo8s29pb0NH1lLUUKeRAwObxuvZChk8d\ns07kP9tmPI36u7YxUkE8D5wZAs9YeMFIAnBHEGZUiqXp5WBlsmYZ5Ougv21nGVxL\n7AB0h4PTFjSBQuMqJofDU8NqRIplqUTk+dHl8EZS/eX5GEvxUKl7bKX1fzgQbuzI\nYJZRQW27FsYXTWxtNj7m5wWMCBfZkSwl6NIMMY+6O2w+Mun/vioHlAmupJA0svx0\nuATpVA2V4YIW4b61eube7VaoAoCZaiZepcfWEph19mAjCaILreRNdKf1m/M6vbVz\ntejBXV2Ya8INKQG7xsXbmofuLq7RuVihb9aC3tscQzck1KzXMQIDAQABo2IwYDAO\nBgNVHQ8BAf8EBAMCBaAwHQYDVR0lBBYwFAYIKwYBBQUHAwEGCCsGAQUFBwMCMAwG\nA1UdEwEB/wQCMAAwIQYDVR0RBBowGIcECv//BYcECv//D4cECgAAAYcEfwAAATAN\nBgkqhkiG9w0BAQsFAAOCAgEAFwapP92wNnEvFeIlm/xCYXCdLqGlDjVdTe54lU2v\nar0QX0bUbNdPw+ugAIpccfp6h8IjPHa2gBngcM5Q/8vU9q9QJp8kH5+SgcmoMEdX\nl1R8IzfZzkK2eIRDG9KbqZvriHQS+LMT6mTvYzL0nHONBBFZKzPiFshaCZbJ6OY4\nvq+4WrZliSB7ZHx/7mzibv9fvpIaAjbjqicplsofaowU8DDmknp1tnhD79Y6Bbbc\n8DoSAy3mcBcU8H+5o0Jbig01jY/1kEwG3pGdAbJEIKlxCy0owmXTNA1BMY4MPRvA\n61qTC7t7mSB86jMLz/mBcDgwhCbxMvixJ1uD+pysr1FW9z8sCLnt+g/xvJeJr2Ka\nVXErYu//3J3vSeYSoD2l7NOuu2pvyy8IR0hIiIsw4aFBOT6TkHIbdNzhnT5M7HzI\nA+VwzHpadeQO6ks+HomBA+SPtjl+le2hAA3rZ0VMhxcJy6UtFIdoBZqvrCcfuRHn\nkK6VG24Tyb54sXkBffLOBExOoYIj91+je6xOvbTEaAd7C0t08zjJDHcqOupUr0nq\nBT6K8GEGAFT1GaZWIVjIqOKUa4X2G9tEoLosGCGKmwvlLfQcr2jfyjEBV3F1sgd6\nEBMi4/n3hJFDlWS8h6KM79/McME8O2GmoqxfJOnqvKirr1rs/BqcQ/iKYR6ly3zo\n2aA=\n-----END CERTIFICATE-----\n",
      "etcdServerPrivateKey": "-----BEGIN RSA PRIVATE KEY-----\nMIIJKQIBAAKCAgEAyw4FL4ko7SAAQE0cQZ0cTnTJzGOLFFEcZasQ9lx1NwEjxJJC\nC5HtVV9X+uiB9BX4Pggx2szp8z595QIPAvTE9CaU57ciy9YCcgUB0NohcoYLETCf\nkVFN45U0D8TDA4ARebr7669AxPql5qbykavbDFdrfnYGot0YIP7HVkw7aEKx4xFT\n4X9guXP7RrPMyK9SxznPyeo2vrFuF567hQJSiTzTdCZMCUqU84j5txX322sTzGD7\n73CkNMXK3C0rg612bhVrXkZ0PIvBocLfmbVQTAJeJlWMW6EEXLYuWIfm/bSDDmoO\nXbbB8OtbxYI3UjDlkVDrIbJJE3OQlP5iofp8/dBehTaPLNvaW9DR9ZS1FCnkQMDm\n8br2QoZPHbNO5D/bZjyN+ru2MVJBPA+cGQLPWHjBSAJwRxBmVIql6eVgZbJmGeTr\noL9tZxlcS+wAdIeD0xY0gULjKiaHw1PDakSKZalE5PnR5fBGUv3l+RhL8VCpe2yl\n9X84EG7syGCWUUFtuxbGF01sbTY+5ucFjAgX2ZEsJejSDDGPujtsPjLp/74qB5QJ\nrqSQNLL8dLgE6VQNleGCFuG+tXrm3u1WqAKAmWomXqXH1hKYdfZgIwmiC63kTXSn\n9ZvzOr21c7XowV1dmGvCDSkBu8bF25qH7i6u0blYoW/Wgt7bHEM3JNSs1zECAwEA\nAQKCAgB/56r4kIuJIrlFx8zev9qOyR48cw+ukpEysZkTtpXXOg6Pyhl0NE2tk0tW\nL5N8b0JZwMu2qZFMubaPxMYz9H8D1DHD7CYtA/eyXtkP9/dNroXWJCy/WtmXW+rZ\na/XzhH59kX0Srug7rC9IpSzy+bAXjBGYLTxs5pxGXHawM4DQYgKvp8CQsK3648YK\neUOrvlSETjRHWhN190oD8uboF9hpvjjsVxtaVvKQnV2/KEVin4ZvHUBVST0GSPlJ\ny+I3JdMN8MwbLIIXiWlFPf2fUwjreCpaN1UcesbGp7N17NViRoyvTbsS6QYtffPm\n6+lxCn/xE2mpZiaF7CvMzpjOs3x7PINV8R0b+vdKRgZ76HiEI56XAFAR4mcK3Pue\n/75H8ugg5mwY/zBDk4CnGRi4ybE7RhbLTIUdanrVJvUJ/yz5GKibcL+dTGyScszV\nN0FdK0XyUZxtnr0kZrfZeQsOUvK6d3lNIKwwuXmQC0A6Lay+GcG2saxBOLexzvUD\nNQM4Sjc9Co72GFpJ3Aya2g48vaqUA2nkj0y6qPjEtpUE7dEPmDlwYLlM66CIOuU8\n7wANqM14lwnKAETGKzgt9vPFCx6N/oco8Cupv1QHobREfOyX2sUdxNS3DUXg3ZIh\n0j0XAaHAUqTVnE1mhS1kWHw8jdwQxIcaZSNlNJslgQuEbb/R6QKCAQEA+kwTit12\n/JT+AG9IJcJoyyibZBcRH2a4ptkHoaNvxHFNWYLIBP8eA/nVJJr87rmofMOlM9Mo\ndw+LlkzPG2aBdWr5sruXk88p8YdRk3l3xl8ydavhvFhB8sAb/po1QxLIFS/2etLC\nr3R+4QwveN7E0nyfNy5d4mmOiV7wVRqbsgoL4zIraHSJIZ64XmgwHjnorgWmxTe8\nI1ZzDjOXUeHdZ1gGyPr3+WmQAjv2KKgvS7cqyNKIUhrbu1K5siQ6ntR9Dt5Q4aBW\nSqHjXwFn78yb8/J9k+qAtx4+i4Nr2PVXMQauDhD+qJCXttlUgH7LfApt20cPGTy7\nyIlqWPh/nuZcIwKCAQEAz65j5q+09DLRKVgJWtQUwNUOCLdn8NjRLLnQ/bTImdMs\nIdTXb43em+edIYCFcpEccss8apKXF37lnjL5M6CEd+g2GlTCY5qTIjSmlCrViKe5\ncn2wXGTpPrR3Ph0kskh9WwHEGsBfVT6p2jKxNxpzVTX/f24GPJ6eO3xkgMViZ6Ru\nFvDAB/DlBWR+z5mPFjwj0w1xmb2ygip1gQbSWDhIx2dgBMGCnAkjf0Tt6H4sEXig\n0iaAuDQs/nULhreq2cJN6QXA2Z6J8ewWKJ3IsvXwRRHegDItYZIPdegqSkXyFnTx\nNa+3MYfuetWC/B4D0KPT/qnII4p4isnvwLCj1oKamwKCAQEAzCVypwd8/gRTq20Y\nTlvjdxg2rYs21wLERqmrVMXl6jZzXTeTBqhCBgImO0YCWH+rEZ/NRZjLX1iZhEw/\ne9y+aFOJN6NTvSXx0uKIwZ0H+Q86K8m2QxVFLMZNzvpdyMgv00AcbA8s5UhCGDIF\nIjOoGvm0LqCtyHZJ4HdD1FXweWVCTttjlj2+f2Jig/W8kVqwEgff/uk3lSb0jre7\niviKybh9SD2SNaZI49meK4kJklriFYvJzhXD9GRDuy1bdqJfIdpn468P0q15ssqF\nyIt9A5pbnGJe+3w6jTXyp7FrnTwSiLyJyFiutV9LUcaZFyG2emvZv77OdoDF8a01\nAhhnOwKCAQEApAEJb2EOO1HuDwIw0QNuKCGX5ZZAhNgTx4gt3ExppeA3l7fnMXcN\ndnzff1dpCuJBXv3UBi0hGDLjzZxfYz+9nJtKLl0E7Xdh/b8qVRPGcRZSwnEzVqNx\n9ky5ZdnJ4uiP5dBtNtr37e+AXoltnSBMN9xemhke37w7JKrFC1PUtBgLwB3658p6\ncVm9MuAHOP3hJIgXT9uYHma9SFlEvtojzyR5lQfjxqkI2TZr0g/haSKjjZFOUSkS\n5xczNP3R9AkXUY9zjec+9EcF8Kk5lunVBhZoaUA2yjh38RqYWvMFjGppGYZb2seH\nsoTt3X8ucBMQFKmrHTX6n098/+P+XiXhRQKCAQAHKL5l/MAB+5FmqbiRGOcid9+R\nseJhL5mhLEmtILtLlMOZ8859273m7RYEbbg7yH34U4wAYjKamSh1FOHnOzRHi+U1\np652h79LZmqAk2WMIrLDR0LJs92NGdubVFD6Pwyco21Itrpe/zl02ubooYJLN2Ju\nR/rhYCiICBoiB1IKDVCFLaIupfrAPXXR0rrWRZYNpzjC9+ysnFXJ8n9qrJvZAiRF\nqLtfDNgeLPbTRR5lRXtlMXoFTEXbYSbkmIXuERs6kuph8fmRdLh+U3lZQsq13S7U\n7KsJfA/NXCSTmZFKu8w8EPwoJbufC45Qpo+QzslkiP+dyD70ZtteqQvZW9xM\n-----END RSA PRIVATE KEY-----\n",
      "etcdClientCertificate": "-----BEGIN CERTIFICATE-----\nMIIFDjCCAvagAwIBAgIQaY8cj7aA0bRhlz7yvpbVGDANBgkqhkiG9w0BAQsFADAN\nMQswCQYDVQQDEwJjYTAeFw0xODA2MTUxMjA3MDNaFw0yMDA2MTQxMjA3MDNaMBUx\nEzARBgNVBAMTCmV0Y2RjbGllbnQwggIiMA0GCSqGSIb3DQEBAQUAA4ICDwAwggIK\nAoICAQDTeq+y5vX/gv0AfLqQrq+nN7330HhMfegx99Osf4kFq5uGKJph7quTu1I2\nNuq/bjvGt9O6Yb9wp+tmEub+2pTsPkMLmS+oQ3+OONMeh8YWcV5fe0hJ+a0Iu/oa\nxCGl3jWtzfk0UI87IWZjm4hr7SKnw/hn45llkW6sM67b+UIjMFbVMC8PIb/atky4\nodOKJ3PtPMB+hHibepDAuShQlPumoi+BQqle832klSqndVPKp5rcwSkCETT+xrWo\nd1uqTCr7gB/Y8jtiuo12NXuBkbYAA1Pl4jWevNwMnkdN/x7H7eNwSteFNsmrflmm\nTionEmm7NjsZtKJ/0X7qNhFmyXpbkMrQZEJMKHQSBVF89XE6UwEPtDe3h3IcpPln\nHT9MdwoMOqgKFlRB4HpVcBy+ylTX9A9u5Be0MVxV4J6l5RqzQ1TRNJ0gH4NaUXzP\n/7TQtOnbw7s5bB+KIOfnT16UImsyEie7p4ync3q6/jxKGNWtL0dvWJfFOwTht/Pi\nL3Tmhisbj5wO+8PeC3imh206z7fADer7Y/CHudM9UyleSP38QZyt+DqY2/dRypuB\nw3+OkgSEBoKjTFR7lAbAclvMybOh6Ix4iQPw9ldFGcbRG7MiURwmCyFJAOB/2Udw\n/l6s7R1cczWhbMyicfcvAI/lY2u4pxjawm9SSUM/VpZTp4LzJwIDAQABo2IwYDAO\nBgNVHQ8BAf8EBAMCBaAwHQYDVR0lBBYwFAYIKwYBBQUHAwEGCCsGAQUFBwMCMAwG\nA1UdEwEB/wQCMAAwIQYDVR0RBBowGIcECv//BYcECv//D4cECgAAAYcEfwAAATAN\nBgkqhkiG9w0BAQsFAAOCAgEAUgnd5GmJDWy+GRBzqE8MpMy1YXr4ZdN46dTZlat/\n6KM9QbHBsclPBvxI2Gh45XzIx7IuiHeP+A9jfX4KCzdRfQn363e1VQA8+ehkHd0L\nfdZubmcr8LmPtboLGk1FwxBah4Ae5+hgdbS47/oitMEJ9N+MEXZha8bffpMbVaYN\nblvsgqAQpXQsHkICLo+nFgJ7W/x/hWWEGKhjM6qH///gFp81dp3SRq6HvbEvReV7\nLFe/VU03xKsyLzavDnSXVOrXI4hCtylT8xA/p3JZ9Wffv7wBvNI7Q26JbrGpgl/c\nSAdxHL4gj4OmRAGjE13W3D2mj+mIXW3uQzZo54+3nMTdwc07+6vnh4VDPwU9tnh5\n+4qJuZma62hj4ksAYekKJ5wjsjqYlCqtkBIs3NlRfnpTUDWQsTO2obyx2BTFjKJf\nSD5zkwZJhaQz34LV+3OV29WNLSK6V+L8jLtzKBhG32kjzvJQbAAbC+0XDKqq8eSF\n2kre4eLk9+U5W8C770WfR8MsMRb9lxEisTb3kxbThHA6sajRG7L/kSj8aOqp/PYp\n0PPDmVNzXm6tqwDFfEMPa0QC47UnCCvXQ2o2YyuZd44lyORg6sTqOUv3AOqs98lk\np2Qrwm31sKI0XvwRSW8c+LFEcrrIASaL4VGCintapmqXu5/N4Ypi1s1U/XnrDAg5\nC3o=\n-----END CERTIFICATE-----\n",
      "etcdClientPrivateKey": "-----BEGIN RSA PRIVATE KEY-----\nMIIJJwIBAAKCAgEA03qvsub1/4L9AHy6kK6vpze999B4TH3oMffTrH+JBaubhiia\nYe6rk7tSNjbqv247xrfTumG/cKfrZhLm/tqU7D5DC5kvqEN/jjjTHofGFnFeX3tI\nSfmtCLv6GsQhpd41rc35NFCPOyFmY5uIa+0ip8P4Z+OZZZFurDOu2/lCIzBW1TAv\nDyG/2rZMuKHTiidz7TzAfoR4m3qQwLkoUJT7pqIvgUKpXvN9pJUqp3VTyqea3MEp\nAhE0/sa1qHdbqkwq+4Af2PI7YrqNdjV7gZG2AANT5eI1nrzcDJ5HTf8ex+3jcErX\nhTbJq35Zpk4qJxJpuzY7GbSif9F+6jYRZsl6W5DK0GRCTCh0EgVRfPVxOlMBD7Q3\nt4dyHKT5Zx0/THcKDDqoChZUQeB6VXAcvspU1/QPbuQXtDFcVeCepeUas0NU0TSd\nIB+DWlF8z/+00LTp28O7OWwfiiDn509elCJrMhInu6eMp3N6uv48ShjVrS9Hb1iX\nxTsE4bfz4i905oYrG4+cDvvD3gt4podtOs+3wA3q+2Pwh7nTPVMpXkj9/EGcrfg6\nmNv3UcqbgcN/jpIEhAaCo0xUe5QGwHJbzMmzoeiMeIkD8PZXRRnG0RuzIlEcJgsh\nSQDgf9lHcP5erO0dXHM1oWzMonH3LwCP5WNruKcY2sJvUklDP1aWU6eC8ycCAwEA\nAQKCAgByhYPUG+KnhaXAt8rIQvD4WuVS59/dfGlbddt5FG99VJsaIa7Izdi4Xb59\ngWvKUsWoLTBJRFnJhgWh9yaEaJYxAN6Jz2DRfAv9VqRtahVJXgc/KaHR/ZVIn5Mn\nH4MhMZ5cCqijPeTynnm2AynzWC1mMGe6yrPtHr6SHkLY+LhqGelL9ZXmWd5tcD9H\n1MqbjBXpKPcNDGvLtqng0+QTDzrf2ABlvVW/B5jIocbBfHXtzqm8VhYA+pR6S91f\n55MKO8ki/RVCBJtIMcIde4Twe5nVk/fBC6kB10BKzQPMJxXiKt75lm3zw+GeLwQZ\nXUbSddQv/4QtvXYqRaa26qStxvms0/lrWJ7GGy9QBvZ43NN0lhf1cQYXIfLXApw5\naVFzJaGOKSSzZoqqeWnp/imiV/m+drILlZldwoEE0hedV+rx/sk5ZmCgfjVEhF0X\nFQq7xjXnCdvKaNP9cTuWNsuUFZqpn1FM8Eykh5RvI0coIfxsnr+yO5gjWC6RZxvA\nyn+/vJdvlgN47FG19/zSUXrhaeNYqg83mX4VpE/lACYwBAd44jf+kiWHjqWqLSo/\n2y8uKp3Ci5e55jFRpGzrnem0JEqKf98mdDfkgvii3Q3LHnG5mf2D07jPHl/iKUff\nmb0/kbhOR4c5EGAcxcimkCkzbRI7Bz2D1GtbBZN3s6OjsKlxYQKCAQEA3OHjZWY0\nJQ9a9D7DDUutCEtuEoQ3BsF8k2r06syXbtiBHlzZW6Uk6RnNLtmxQ1v5LRcJnVkn\ng/zhAQmowlqzOkH3FOCsnnd5od94c328Nbb5qSzcdXqGMdB46ORegMI/vZa2eS1H\nFmaWur9ntiKLscKnC/5mxFyO43Hfmm/gtUVehH46QwwAyeYhJWdQsHJv0V3Fyj2G\nidrjfikV3isPt2hMQA7zCaglyRb+GPNceeFwEjwMC0kgxRKNpaHveQr1WmzzVwVd\nXgmu5e/wQiJvhaEyPiT8TCe0MT+VUAz3XfOhfYs+UTVfpBnZ7kaNQAlFCutt3vnc\nrlPau+fbIB3uaQKCAQEA9RoVA7/ewR8vQLEWlp6je7LDip87QTaODcDaOwaTkaUl\nLnq8ivmMDPEpxkrTO28Qbi9yC+QxccGtfWCCSD4eO3T6/ZpErwpFZpcKo3jft7IW\nhG1LofUjhPZIbT61Njg8tspg6IlSr4FcOfqD8NdLPzGIqymr5zbnlcl+nsSill/q\ngW+UaMae4LEpMdvEm4HUOtI+PJ8ATfOyMdPkG4n9rk7c/mJP8E7KdjJnudjG2TG9\nzZ/7UUtaMJ4vzrFlTNwZYu6yxgJDtWhdGrBmvc1nvDzckKJuJxa1dbmSsxaYEHSA\n3WsFcFMAHFl0zdkx5C8irkADdZssr7wY4qzNWujDDwKCAQAXjite6+hRr3KGq47H\ngzN/t/OUG+92U/oCCpz10T2w/3u9ji9L26+1ACBmh6akxVEsYtGOqyxQog4ouyv5\nFg0ZAGHmIxOljp41CgzhXB5PKCU1ymf0S022UEIkq/38Azsi78ij4ZU8KVKXtcPM\no6B8I4MG/2lcNXazgLhU0uuGyVAMFx4Femk3HsiYIY10U6/jBvoJ2EfZubMbCCyh\n1bvGVmQTTMTUWc81w7LzXDiXctgtyaOLLJBHE/RxHnTYVrfVndrRg+vyFFxHfzAD\nDYMRICCoie8x++X2fo5gzBExPsMRDWFm7ac2a99WzsVPd+2Z/YNpDQJgwOaJtW8j\n3K1JAoIBACvIc/aOgMEoy+0XdTyErBl9rnaFyTT2BNwqFhGzNAsxX/n0jNeaik0J\ni3fTh/Y2+c1lBk9ffQGgIliiM8Op7Qab9/XzZ8+I2yrfUlQvVG9hDaqsR3Vv799h\ni0CQkhhUZWwVrMf9N9sIFax5trYAD34DYDGLKR0NbsMQEmFUKOMJ0T876lvpFxp2\nKzCv3GgXAg1b3yg/EvPZ03wZKMdOmBVaGxoJ/9Oij4IbsPG+6o6D1y7zJBa6iirj\nJxEaGUloi9RjZWX/o461TORmnIPNPHmguZnQmjK7WMDl3HHHWHSgCyECbB9LhFqM\nFFRtNv9W+C/+WV/Zz1q5FAzx52EU8TsCggEAXzakMX5KY7KmWZskMQU45xyE+qPg\nuLXJ1b2FlaFTOtnPd8eQUNtiTp8XY+eGpdaVtZzmVU5bNairHKwodx36gha1X6TX\nj90RbJ5E0l7Js262QR+w9fneMSvHUcvtjSSvS39YOa9HmefGuFuMyoDKg3X80hZ8\nck5lSXGe10Wl2bJ+0et6jl5EwIauLCtdpRohw3Y8Rt1H1BPEM3XqwW+x6boPa39F\n7DcuqujqrLE6x02Ouu4ZhFY5xQiCvJXfWQ+a5OXPJBVBr+la+T6A/XtkcLqPlHCg\nb9VUavS/0fqndMH1wLuyKmHCOxmBb5SJF4Ue7tzPD4cgem2p9bf8dc2ERQ==\n-----END RSA PRIVATE KEY-----\n",
      "etcdPeerCertificates": [
        "-----BEGIN CERTIFICATE-----\nMIIFDTCCAvWgAwIBAgIRAPWItFHoJZF3PLGC5RpBo6MwDQYJKoZIhvcNAQELBQAw\nDTELMAkGA1UEAxMCY2EwHhcNMTgwNjE1MTIwNzAzWhcNMjAwNjE0MTIwNzAzWjAT\nMREwDwYDVQQDEwhldGNkcGVlcjCCAiIwDQYJKoZIhvcNAQEBBQADggIPADCCAgoC\nggIBAK4CrP3w+0kfvebaYMVlIqTTtEfa8W4HmmBuhIfwuF+xY0Whb+xfuzYz+sXf\nBzUKb4sqOTSF7jvMgRhVk3Ao2e/qMybM/37Yk/C/NoPxLFlFyUTi9kCsBhlx2IFg\nIvwAZfXyeI+p685LjSeXW4pkW6LKt8ROzNeUtGBY3hgBfL0AD3PjxfFqzzExYgv+\nPognEDe8gPIRVtAiKkSg/SZy/GTb/ibOlmIEfx1jqHInHgbl7dURsb1TFNrcELa3\nD28C7ZumzZ1pcPbO7iqHdbJmhySJoFlQ7qCeuqWI6t8jQr7Z7sQAwDQAljKfVFbi\nY5aHu7GElbV7Qiy4NkBf11ug5Rkg/rZTsLTs8euRx/Xjw+QP+efeOepD3SqCb70S\nfIagDi/XQVw7I2Fo7edWOGSa/zSbPoaURzS7EHoyDH8SUvgX1W0Np/AzdFfhFsrO\nwmoVVW37BLYf7S/GMMHHtyERXUMwL1WwZ2T0yGV7ClumkupKNzZoLtoX1OPPUkdW\nX5bNCEUAf2K9gNbJm0azv9dy8p2KT2Id+wLrTZNGfQ/nx+LcKyuWEXtCnqTkeKYi\nXOuzbhPsYybqwYnC0g5bsW2sWmlJpzhyos48uCHA9IK1kz+/QvNYUskPFumJL+es\n4Giuz0ldMfNkswU8ruPAWEM0Dt6xCVpZJOPR5B1qp/Il3/NNAgMBAAGjYjBgMA4G\nA1UdDwEB/wQEAwIFoDAdBgNVHSUEFjAUBggrBgEFBQcDAQYIKwYBBQUHAwIwDAYD\nVR0TAQH/BAIwADAhBgNVHREEGjAYhwQK//8FhwQK//8PhwQKAAABhwR/AAABMA0G\nCSqGSIb3DQEBCwUAA4ICAQBVGDmlZM58J68jqbqe1n2/n2t/hyOeCTjrv3p+REpW\nmOsqZbFbryhae/xGGLBwgPIPWt6/xHhTpA/9Y73YqpnHyEuQdY/Q6e4jIatokzfk\nmESC92QjnpzuAjzlYSZwbmeXR6Aou4k7mtGs6CvnnIk1xcgNkcGBhy6bd/VAr7t5\nzyNGfAr9HczwGDD4XvsvzdGwIxyQ0W5pn8s3bj3F97W1IUfdJLZYdNYHFmwZTwSZ\nuxPVNcGnKw4zaDfkNI6NVnCao8BXJw4Mh7kqlUkcYwhITgeHMzGUzC++Hgh99Rz4\nYLuHjAqm/baMbv/h9DN3R+C8Pu/V2JqWjOMQS6Vh7VwgbnnYWEnLKknG9tBzQyeC\nKKCtVQRccwLoEJdDG5mrMl5kJSHskAVGTmj2rJMD1KHZWvob5uj7wSI57sa+bME8\nHTM6g/wxJVfMAqDn5e8i7HYJ7vj8jhyYdSkLBS7buyinHoVhe9nArhGD7H2zvycD\nO3rkz+Pn0fVGjdKIAYYlzMClggEwaVuxWUHy5SQTOvd2lEa+n4psjOqnoZe9rrNo\n0n00QozLHmHx7j91b19GPVjcDMtgIRgqBbATwxxMD1ApWwk5llowhcdsN93VFoxz\nFkY0vu6oxEb30efFCWubTOD2cSdTByYz9ljrcW/ADhRyXQaiRe7QODbYepo5+UP+\nRQ==\n-----END CERTIFICATE-----\n"
      ],
      "etcdPeerPrivateKeys": [
        "-----BEGIN RSA PRIVATE KEY-----\nMIIJJwIBAAKCAgEArgKs/fD7SR+95tpgxWUipNO0R9rxbgeaYG6Eh/C4X7FjRaFv\n7F+7NjP6xd8HNQpviyo5NIXuO8yBGFWTcCjZ7+ozJsz/ftiT8L82g/EsWUXJROL2\nQKwGGXHYgWAi/ABl9fJ4j6nrzkuNJ5dbimRbosq3xE7M15S0YFjeGAF8vQAPc+PF\n8WrPMTFiC/4+iCcQN7yA8hFW0CIqRKD9JnL8ZNv+Js6WYgR/HWOociceBuXt1RGx\nvVMU2twQtrcPbwLtm6bNnWlw9s7uKod1smaHJImgWVDuoJ66pYjq3yNCvtnuxADA\nNACWMp9UVuJjloe7sYSVtXtCLLg2QF/XW6DlGSD+tlOwtOzx65HH9ePD5A/55945\n6kPdKoJvvRJ8hqAOL9dBXDsjYWjt51Y4ZJr/NJs+hpRHNLsQejIMfxJS+BfVbQ2n\n8DN0V+EWys7CahVVbfsEth/tL8Ywwce3IRFdQzAvVbBnZPTIZXsKW6aS6ko3Nmgu\n2hfU489SR1Zfls0IRQB/Yr2A1smbRrO/13LynYpPYh37AutNk0Z9D+fH4twrK5YR\ne0KepOR4piJc67NuE+xjJurBicLSDluxbaxaaUmnOHKizjy4IcD0grWTP79C81hS\nyQ8W6Ykv56zgaK7PSV0x82SzBTyu48BYQzQO3rEJWlkk49HkHWqn8iXf800CAwEA\nAQKCAgBtFuRY90CyISIune1ZEwRbDRXSjmIZNs8DcYXIq5MK+uxfdMv0BjgZzRCE\nCEQ+bmJrfncKhIRMHPM5zDx4bkPi8pJK2u26GhD1Nwr4QLQq62M4uojjFnVkckjn\nItwL3DwPqokGl+JrHFZL4cnTwwLn1erLOROWe3VxiYUCy7vlySnm337y0KFAF9N9\n7VBKjyLNrnGwUEp6hVC2Ya8S8bdli72TmqQQov0F8bpihj9+15r4nvUs2e8THi+k\nPLOCRvWrRTFWZAob0LLjGrUguMI0l8tc8y4GqDwfFu0YIsTvXTUgz8+vSkbfSZ/Y\nMGl6r3Ft4s7wTWu5GWt5hBxBJ2c4BxmK54WnGs5vPhXsnYKOjBXH9Deij2aUV2VN\n54hyfGio7ZC26Sm1l/eZMvBH2R8CwCPHyCZoZwuAXUtjcaeB5wx17nCgSDqzrQot\nuMd9EDuTp2+GLamqcNlyQ4BoMqwhPoLhatUOD4nFHBuajLhK8MBu0DiZbNoJEKkT\nP2Gu5kEGCSHLDyQWqYSKlRYuBronvHqDwkdCl3zVm0f5Iif/jaoY1Lw3A7gsJHg5\n6L+BZ3ok/LLyzot/MRVY8nhAAmamD/XcAYFK+DQY0Lkr/F2ZA2F/iMEdjqsqWbTQ\nil3k6mOSR04e7JG9Hj9eUuE91dkGPigE5sGEGzws3XsrZbJigQKCAQEAz7fHQZdn\npCkJcWMEj0BANQ/OifXXNxJO87U/nvbJx/ZU71SALt/CWZxB/etNMyXCPijb411w\nXf1rcnl3U0tpZZQsydOGrx+cSJzhFFxxhrLgW5cHzezVmIjnCtGu2C/r6Cbhpdxo\nSMU+/Qd8eHd7v7R1OFMKyT/NRY61douXVdDqix+f7Dp2BsrAMh6evJFbvZHupQMo\nFHVwbeacQiVOFY+QAp1QjKDa10SHkBImERXNK5gXTLDZ1lOdkc6dqtsKISHdQr+P\n878zQsHtF4xneiIizowfbYim3mSI4XFQCC9ydMDdz8aWuYs6IR/eIxSSB07u+UCW\nHRQ2PsMks18RUQKCAQEA1nUkRn8lraPMDb6QCHDfV9cxwQitYZly4TO1gtXqeTDB\n9NAVJeTYfDbIog1x3l3woWicsnHbgh+ilq07h8fxgFsqShgvygXgPzoHniCyj81o\n2sN4LfAziBDWSHzYRxUQ7mhu+JhdggFNT6MMyaxgJC3xeMm3uG9kW15IL4byGD8Q\nuMrxTl7UOIUbVp6sI6FU/85vUV8B0I4B3yuKYFQmNJ8hm8WLBwwPCQ0zA9V+i/Q7\nMiUZgLDu84gJLvex/n18s3s//+ok5C0AqC5X0qFJPcwrVRJT8i2dJVj+3q89r2gk\n5mujGsUqu7y2lJ49UbxTuK45r2HWRN4CTXpMtn7jPQKCAQBos0/ihfidzHmQB8Mi\nmdZDaMZIz/w9LCNTwIZjEC5Bdq71O/iop+0E0jiJTvPI1j2Eq3+6qTycg8KHHybA\ne4CSzQ+OY+q9lwdlqn3hj39B0CQ6xnQOnlRD4K3kzDB/lBgrGn4e5mxCUfof/IgH\nCOL9jG6Rh3omWtyTNQ3OxSnw/a9blQM9RXJ8lfIu0TReBD7j3Q0Xa/Hl7hRPsTAO\nP1OOlqCWUMlrOSFV5JsYSa2aawzR7oXACFylJdyExErA9kuyy6kFnh1nVXb3LVze\nw8zcyRwWVJb61SiXbMF6MW2P0qq0owqrUoRi3gTc8X083X+F44mdZarE2Y1GMYLs\nTv0hAoIBAAX0otlCVq2Hyvbmv+E8ITezRjJyJz56oHIYmYXUovpSnFBMJwoyXMC2\nVMQLU4o1WaVh3lgmSU5HyqAcl3ah2tcRsQ71tP4LQ7r9xZBioBLWRX8txnygGw5A\nSXMh5G+06g903wAQWyhtGNSJVqWTH+hhTj9oeq2oikTvTVnkiXya47/+As2GXKZl\nK+kv5t/mbxHbjcPYu5grGWo1L1aVf6oecTR+O+oqL5C0ySHmH+mLEsnFtfuY7knd\nEUQ4pLzIh1oEpjZZLkUX6tjA0LeMuxf4P4vRQnuLQL30xr8wZqokXkH340OvDgzA\npOFjs5g9fqW2UOvJ78Vh1PaJ2u+GfpECggEAbJ19EGNN+eDzsN6s8FV+Cx+l65pB\nVP5x9k3G8RzbWDwm+KJddsH/QBrKrzPvKokHDeWPzsDvbOG5AeVZXg/vqsw9djdv\nRvTmlvjX476S/XKw6LInyTRSYD77tEwD8VgeiYRn2/7QykZDir4Gcs8IyvntlTOG\nKFzZs+E1qGkL/twEz82rHBOXRixx2eUN9dTTqmNVa5V+hzlv3UiEyXFK1XbZJhxR\nq/POutrdOAFUqmyN9aemw8Jcm7f793IY0K9NB0NlIzbuXmt7KmnMwT/v40Y73DSk\ngVWrKlUPsrbXyuEImApVJitBqheopBgPgySMxMKeecca4iXeKT4gXbsGNA==\n-----END RSA PRIVATE KEY-----\n"
      ]
    }
  }
}
